G75*
%MOIN*%
%OFA0B0*%
%FSLAX25Y25*%
%IPPOS*%
%LPD*%
%AMOC8*
5,1,8,0,0,1.08239X$1,22.5*
%
%ADD10R,0.04800X0.04800*%
%ADD11C,0.04800*%
%ADD12C,0.00607*%
%ADD13C,0.00600*%
%ADD14C,0.02400*%
D10*
X0036929Y0044558D03*
X0043179Y0029558D03*
D11*
X0043179Y0039558D03*
X0043179Y0049558D03*
X0036929Y0054558D03*
X0043179Y0059558D03*
X0043179Y0069558D03*
X0036929Y0064558D03*
X0036929Y0074558D03*
X0043179Y0079558D03*
X0036929Y0084558D03*
X0043179Y0089558D03*
X0036929Y0094558D03*
X0043179Y0099558D03*
X0036929Y0104558D03*
X0043179Y0109558D03*
X0036929Y0114558D03*
X0043179Y0119558D03*
X0013179Y0119558D03*
X0006929Y0114558D03*
X0013179Y0109558D03*
X0006929Y0104558D03*
X0013179Y0099558D03*
X0006929Y0094558D03*
X0013179Y0089558D03*
X0006929Y0084558D03*
X0013179Y0079558D03*
X0006929Y0074558D03*
X0013179Y0069558D03*
X0006929Y0064558D03*
X0013179Y0059558D03*
X0006929Y0054558D03*
X0013179Y0049558D03*
X0006929Y0044558D03*
X0013179Y0039558D03*
X0013179Y0029558D03*
D12*
X0003686Y0025661D02*
X0003686Y0043754D01*
X0004128Y0042687D01*
X0005057Y0041757D01*
X0006100Y0041326D01*
X0006100Y0040835D01*
X0007300Y0039635D01*
X0007300Y0032435D01*
X0009100Y0030635D01*
X0009805Y0029930D01*
X0009875Y0029930D01*
X0009875Y0028901D01*
X0010378Y0027687D01*
X0011307Y0026757D01*
X0012521Y0026255D01*
X0013836Y0026255D01*
X0015050Y0026757D01*
X0015979Y0027687D01*
X0016482Y0028901D01*
X0016482Y0030215D01*
X0015979Y0031429D01*
X0015050Y0032359D01*
X0013836Y0032862D01*
X0012521Y0032862D01*
X0011307Y0032359D01*
X0011285Y0032337D01*
X0010802Y0032337D01*
X0009707Y0033432D01*
X0009707Y0040632D01*
X0009002Y0041337D01*
X0008645Y0041693D01*
X0008800Y0041757D01*
X0009729Y0042687D01*
X0010232Y0043901D01*
X0010232Y0045215D01*
X0009729Y0046429D01*
X0008800Y0047359D01*
X0007586Y0047862D01*
X0006271Y0047862D01*
X0005057Y0047359D01*
X0004128Y0046429D01*
X0003686Y0045362D01*
X0003686Y0053754D01*
X0004128Y0052687D01*
X0005057Y0051757D01*
X0006271Y0051255D01*
X0007586Y0051255D01*
X0008800Y0051757D01*
X0009729Y0052687D01*
X0010232Y0053901D01*
X0010232Y0055215D01*
X0009729Y0056429D01*
X0008800Y0057359D01*
X0007586Y0057862D01*
X0006271Y0057862D01*
X0005057Y0057359D01*
X0004128Y0056429D01*
X0003686Y0055362D01*
X0003686Y0063754D01*
X0004128Y0062687D01*
X0005057Y0061757D01*
X0006271Y0061255D01*
X0007586Y0061255D01*
X0008800Y0061757D01*
X0009729Y0062687D01*
X0010232Y0063901D01*
X0010232Y0065215D01*
X0009729Y0066429D01*
X0008800Y0067359D01*
X0007586Y0067862D01*
X0006271Y0067862D01*
X0005057Y0067359D01*
X0004128Y0066429D01*
X0003686Y0065362D01*
X0003686Y0073754D01*
X0004128Y0072687D01*
X0005057Y0071757D01*
X0006271Y0071255D01*
X0007586Y0071255D01*
X0008800Y0071757D01*
X0009729Y0072687D01*
X0009913Y0073130D01*
X0015205Y0073130D01*
X0019405Y0068930D01*
X0039875Y0068930D01*
X0039875Y0068901D01*
X0040378Y0067687D01*
X0041307Y0066757D01*
X0042521Y0066255D01*
X0043836Y0066255D01*
X0045050Y0066757D01*
X0045979Y0067687D01*
X0046482Y0068901D01*
X0046482Y0070215D01*
X0045979Y0071429D01*
X0045050Y0072359D01*
X0043836Y0072862D01*
X0042521Y0072862D01*
X0041307Y0072359D01*
X0040378Y0071429D01*
X0040340Y0071337D01*
X0037784Y0071337D01*
X0038800Y0071757D01*
X0039729Y0072687D01*
X0040232Y0073901D01*
X0040232Y0075215D01*
X0039729Y0076429D01*
X0038800Y0077359D01*
X0037586Y0077862D01*
X0036271Y0077862D01*
X0035057Y0077359D01*
X0034128Y0076429D01*
X0033625Y0075215D01*
X0033625Y0073901D01*
X0034128Y0072687D01*
X0035057Y0071757D01*
X0036073Y0071337D01*
X0020402Y0071337D01*
X0016907Y0074832D01*
X0016202Y0075537D01*
X0010099Y0075537D01*
X0009729Y0076429D01*
X0008800Y0077359D01*
X0007586Y0077862D01*
X0006271Y0077862D01*
X0005057Y0077359D01*
X0004128Y0076429D01*
X0003686Y0075362D01*
X0003686Y0083754D01*
X0004128Y0082687D01*
X0005057Y0081757D01*
X0006271Y0081255D01*
X0007586Y0081255D01*
X0008800Y0081757D01*
X0009729Y0082687D01*
X0010232Y0083901D01*
X0010232Y0085215D01*
X0009729Y0086429D01*
X0008800Y0087359D01*
X0007586Y0087862D01*
X0006271Y0087862D01*
X0005057Y0087359D01*
X0004128Y0086429D01*
X0003686Y0085362D01*
X0003686Y0093754D01*
X0004128Y0092687D01*
X0005057Y0091757D01*
X0006271Y0091255D01*
X0007586Y0091255D01*
X0008800Y0091757D01*
X0009729Y0092687D01*
X0010232Y0093901D01*
X0010232Y0095215D01*
X0009729Y0096429D01*
X0008800Y0097359D01*
X0007586Y0097862D01*
X0006271Y0097862D01*
X0005057Y0097359D01*
X0004128Y0096429D01*
X0003686Y0095362D01*
X0003686Y0103754D01*
X0004128Y0102687D01*
X0005057Y0101757D01*
X0006271Y0101255D01*
X0007586Y0101255D01*
X0008800Y0101757D01*
X0009729Y0102687D01*
X0009913Y0103130D01*
X0015205Y0103130D01*
X0019405Y0098930D01*
X0039875Y0098930D01*
X0039875Y0098901D01*
X0040378Y0097687D01*
X0041307Y0096757D01*
X0042521Y0096255D01*
X0043836Y0096255D01*
X0045050Y0096757D01*
X0045979Y0097687D01*
X0046482Y0098901D01*
X0046482Y0100215D01*
X0045979Y0101429D01*
X0045050Y0102359D01*
X0043836Y0102862D01*
X0042521Y0102862D01*
X0041307Y0102359D01*
X0040378Y0101429D01*
X0040340Y0101337D01*
X0037784Y0101337D01*
X0038800Y0101757D01*
X0039729Y0102687D01*
X0040232Y0103901D01*
X0040232Y0105215D01*
X0039729Y0106429D01*
X0038800Y0107359D01*
X0037586Y0107862D01*
X0036271Y0107862D01*
X0035057Y0107359D01*
X0034128Y0106429D01*
X0033625Y0105215D01*
X0033625Y0103901D01*
X0034128Y0102687D01*
X0035057Y0101757D01*
X0036073Y0101337D01*
X0020402Y0101337D01*
X0016907Y0104832D01*
X0016202Y0105537D01*
X0010099Y0105537D01*
X0009729Y0106429D01*
X0008800Y0107359D01*
X0007586Y0107862D01*
X0006271Y0107862D01*
X0005057Y0107359D01*
X0004128Y0106429D01*
X0003686Y0105362D01*
X0003686Y0113754D01*
X0004128Y0112687D01*
X0005057Y0111757D01*
X0006271Y0111255D01*
X0007586Y0111255D01*
X0008800Y0111757D01*
X0009729Y0112687D01*
X0010232Y0113901D01*
X0010232Y0115215D01*
X0009729Y0116429D01*
X0008800Y0117359D01*
X0007586Y0117862D01*
X0006271Y0117862D01*
X0005057Y0117359D01*
X0004128Y0116429D01*
X0003686Y0115362D01*
X0003686Y0122880D01*
X0041519Y0122880D01*
X0041424Y0122840D01*
X0040818Y0122435D01*
X0040302Y0121919D01*
X0039897Y0121312D01*
X0039617Y0120638D01*
X0039475Y0119923D01*
X0039475Y0119862D01*
X0042875Y0119862D01*
X0042875Y0119255D01*
X0039475Y0119255D01*
X0039475Y0119193D01*
X0039617Y0118478D01*
X0039897Y0117804D01*
X0040302Y0117197D01*
X0040818Y0116681D01*
X0041424Y0116276D01*
X0042098Y0115997D01*
X0042814Y0115855D01*
X0042875Y0115855D01*
X0042875Y0119254D01*
X0043482Y0119254D01*
X0043482Y0115855D01*
X0043543Y0115855D01*
X0044259Y0115997D01*
X0044933Y0116276D01*
X0045539Y0116681D01*
X0046055Y0117197D01*
X0046461Y0117804D01*
X0046740Y0118478D01*
X0046882Y0119193D01*
X0046882Y0119255D01*
X0043482Y0119255D01*
X0043482Y0119862D01*
X0046882Y0119862D01*
X0046882Y0119923D01*
X0046740Y0120638D01*
X0046461Y0121312D01*
X0046055Y0121919D01*
X0045539Y0122435D01*
X0044933Y0122840D01*
X0044838Y0122880D01*
X0047750Y0122880D01*
X0047750Y0025661D01*
X0033788Y0025661D01*
X0033033Y0027229D01*
X0030873Y0028952D01*
X0028179Y0029566D01*
X0028179Y0029566D01*
X0025484Y0028952D01*
X0023324Y0027229D01*
X0023324Y0027229D01*
X0023324Y0027229D01*
X0022569Y0025661D01*
X0003686Y0025661D01*
X0003686Y0026216D02*
X0022836Y0026216D01*
X0023128Y0026821D02*
X0015113Y0026821D01*
X0015719Y0027427D02*
X0023572Y0027427D01*
X0024332Y0028032D02*
X0016122Y0028032D01*
X0016373Y0028638D02*
X0025091Y0028638D01*
X0025484Y0028952D02*
X0025484Y0028952D01*
X0026763Y0029244D02*
X0016482Y0029244D01*
X0016482Y0029849D02*
X0039875Y0029849D01*
X0039875Y0029244D02*
X0029594Y0029244D01*
X0030873Y0028952D02*
X0030873Y0028952D01*
X0031266Y0028638D02*
X0039875Y0028638D01*
X0039875Y0028032D02*
X0032025Y0028032D01*
X0032785Y0027427D02*
X0039875Y0027427D01*
X0039875Y0026821D02*
X0033229Y0026821D01*
X0033033Y0027229D02*
X0033033Y0027229D01*
X0033521Y0026216D02*
X0047750Y0026216D01*
X0047750Y0026821D02*
X0046482Y0026821D01*
X0046482Y0026784D02*
X0046482Y0032332D01*
X0045953Y0032862D01*
X0040404Y0032862D01*
X0039875Y0032332D01*
X0039875Y0026784D01*
X0040404Y0026255D01*
X0045953Y0026255D01*
X0046482Y0026784D01*
X0046482Y0027427D02*
X0047750Y0027427D01*
X0047750Y0028032D02*
X0046482Y0028032D01*
X0046482Y0028638D02*
X0047750Y0028638D01*
X0047750Y0029244D02*
X0046482Y0029244D01*
X0046482Y0029849D02*
X0047750Y0029849D01*
X0047750Y0030455D02*
X0046482Y0030455D01*
X0046482Y0031060D02*
X0047750Y0031060D01*
X0047750Y0031666D02*
X0046482Y0031666D01*
X0046482Y0032271D02*
X0047750Y0032271D01*
X0047750Y0032877D02*
X0010262Y0032877D01*
X0009707Y0033483D02*
X0047750Y0033483D01*
X0047750Y0034088D02*
X0009707Y0034088D01*
X0009707Y0034694D02*
X0047750Y0034694D01*
X0047750Y0035299D02*
X0009707Y0035299D01*
X0009707Y0035905D02*
X0047750Y0035905D01*
X0047750Y0036511D02*
X0044454Y0036511D01*
X0045050Y0036757D02*
X0043836Y0036255D01*
X0042521Y0036255D01*
X0041307Y0036757D01*
X0040378Y0037687D01*
X0039875Y0038901D01*
X0039875Y0040215D01*
X0040378Y0041429D01*
X0041307Y0042359D01*
X0042521Y0042862D01*
X0043836Y0042862D01*
X0045050Y0042359D01*
X0045979Y0041429D01*
X0046482Y0040215D01*
X0046482Y0038901D01*
X0045979Y0037687D01*
X0045050Y0036757D01*
X0045409Y0037116D02*
X0047750Y0037116D01*
X0047750Y0037722D02*
X0045994Y0037722D01*
X0046245Y0038327D02*
X0047750Y0038327D01*
X0047750Y0038933D02*
X0046482Y0038933D01*
X0046482Y0039539D02*
X0047750Y0039539D01*
X0047750Y0040144D02*
X0046482Y0040144D01*
X0046261Y0040750D02*
X0047750Y0040750D01*
X0047750Y0041355D02*
X0046010Y0041355D01*
X0045447Y0041961D02*
X0047750Y0041961D01*
X0047750Y0042567D02*
X0044548Y0042567D01*
X0047750Y0043172D02*
X0040232Y0043172D01*
X0040232Y0042567D02*
X0041809Y0042567D01*
X0040910Y0041961D02*
X0040232Y0041961D01*
X0040232Y0041784D02*
X0040232Y0047332D01*
X0039703Y0047862D01*
X0034154Y0047862D01*
X0033625Y0047332D01*
X0033625Y0045357D01*
X0033100Y0044832D01*
X0029605Y0041337D01*
X0016018Y0041337D01*
X0015979Y0041429D01*
X0015050Y0042359D01*
X0013836Y0042862D01*
X0012521Y0042862D01*
X0011307Y0042359D01*
X0010378Y0041429D01*
X0009875Y0040215D01*
X0009875Y0038901D01*
X0010378Y0037687D01*
X0011307Y0036757D01*
X0012521Y0036255D01*
X0013836Y0036255D01*
X0015050Y0036757D01*
X0015979Y0037687D01*
X0016482Y0038901D01*
X0016482Y0038930D01*
X0030602Y0038930D01*
X0033625Y0041952D01*
X0033625Y0041784D01*
X0034154Y0041255D01*
X0039703Y0041255D01*
X0040232Y0041784D01*
X0040347Y0041355D02*
X0039804Y0041355D01*
X0040096Y0040750D02*
X0032422Y0040750D01*
X0031817Y0040144D02*
X0039875Y0040144D01*
X0039875Y0039539D02*
X0031211Y0039539D01*
X0030606Y0038933D02*
X0039875Y0038933D01*
X0040113Y0038327D02*
X0016245Y0038327D01*
X0015994Y0037722D02*
X0040363Y0037722D01*
X0040948Y0037116D02*
X0015409Y0037116D01*
X0014454Y0036511D02*
X0041903Y0036511D01*
X0039875Y0032271D02*
X0015137Y0032271D01*
X0015743Y0031666D02*
X0039875Y0031666D01*
X0039875Y0031060D02*
X0016132Y0031060D01*
X0016383Y0030455D02*
X0039875Y0030455D01*
X0034053Y0041355D02*
X0033028Y0041355D01*
X0031441Y0043172D02*
X0009930Y0043172D01*
X0010181Y0043778D02*
X0032046Y0043778D01*
X0032652Y0044383D02*
X0010232Y0044383D01*
X0010232Y0044989D02*
X0033257Y0044989D01*
X0033625Y0045595D02*
X0010075Y0045595D01*
X0009824Y0046200D02*
X0033625Y0046200D01*
X0033625Y0046806D02*
X0015098Y0046806D01*
X0015050Y0046757D02*
X0013836Y0046255D01*
X0012521Y0046255D01*
X0011307Y0046757D01*
X0010378Y0047687D01*
X0009875Y0048901D01*
X0009875Y0050215D01*
X0010378Y0051429D01*
X0011307Y0052359D01*
X0012521Y0052862D01*
X0013836Y0052862D01*
X0015050Y0052359D01*
X0015979Y0051429D01*
X0016482Y0050215D01*
X0016482Y0048901D01*
X0015979Y0047687D01*
X0015050Y0046757D01*
X0015704Y0047411D02*
X0033704Y0047411D01*
X0035506Y0049228D02*
X0016482Y0049228D01*
X0016482Y0049834D02*
X0034901Y0049834D01*
X0035500Y0049235D02*
X0036205Y0048530D01*
X0040029Y0048530D01*
X0040378Y0047687D01*
X0041307Y0046757D01*
X0042521Y0046255D01*
X0043836Y0046255D01*
X0045050Y0046757D01*
X0045979Y0047687D01*
X0046482Y0048901D01*
X0046482Y0050215D01*
X0045979Y0051429D01*
X0045050Y0052359D01*
X0043836Y0052862D01*
X0042521Y0052862D01*
X0041307Y0052359D01*
X0040378Y0051429D01*
X0040174Y0050937D01*
X0037202Y0050937D01*
X0036884Y0051255D01*
X0037586Y0051255D01*
X0038800Y0051757D01*
X0039729Y0052687D01*
X0040232Y0053901D01*
X0040232Y0055215D01*
X0039729Y0056429D01*
X0038800Y0057359D01*
X0037586Y0057862D01*
X0036934Y0057862D01*
X0037202Y0058130D01*
X0037907Y0058835D01*
X0037907Y0061388D01*
X0038800Y0061757D01*
X0039729Y0062687D01*
X0040232Y0063901D01*
X0040232Y0065215D01*
X0039729Y0066429D01*
X0038800Y0067359D01*
X0037586Y0067862D01*
X0036271Y0067862D01*
X0035057Y0067359D01*
X0034128Y0066429D01*
X0033625Y0065215D01*
X0033625Y0063901D01*
X0034128Y0062687D01*
X0035057Y0061757D01*
X0035500Y0061574D01*
X0035500Y0059832D01*
X0032605Y0056937D01*
X0031900Y0056232D01*
X0031900Y0052835D01*
X0035500Y0049235D01*
X0036112Y0048623D02*
X0016367Y0048623D01*
X0016116Y0048017D02*
X0040241Y0048017D01*
X0040153Y0047411D02*
X0040653Y0047411D01*
X0040232Y0046806D02*
X0041259Y0046806D01*
X0040232Y0046200D02*
X0047750Y0046200D01*
X0047750Y0045595D02*
X0040232Y0045595D01*
X0040232Y0044989D02*
X0047750Y0044989D01*
X0047750Y0044383D02*
X0040232Y0044383D01*
X0040232Y0043778D02*
X0047750Y0043778D01*
X0047750Y0046806D02*
X0045098Y0046806D01*
X0045704Y0047411D02*
X0047750Y0047411D01*
X0047750Y0048017D02*
X0046116Y0048017D01*
X0046367Y0048623D02*
X0047750Y0048623D01*
X0047750Y0049228D02*
X0046482Y0049228D01*
X0046482Y0049834D02*
X0047750Y0049834D01*
X0047750Y0050439D02*
X0046389Y0050439D01*
X0046138Y0051045D02*
X0047750Y0051045D01*
X0047750Y0051651D02*
X0045758Y0051651D01*
X0045152Y0052256D02*
X0047750Y0052256D01*
X0047750Y0052862D02*
X0039802Y0052862D01*
X0040052Y0053467D02*
X0047750Y0053467D01*
X0047750Y0054073D02*
X0040232Y0054073D01*
X0040232Y0054679D02*
X0047750Y0054679D01*
X0047750Y0055284D02*
X0040203Y0055284D01*
X0039953Y0055890D02*
X0047750Y0055890D01*
X0047750Y0056495D02*
X0044417Y0056495D01*
X0043836Y0056255D02*
X0045050Y0056757D01*
X0045979Y0057687D01*
X0046482Y0058901D01*
X0046482Y0060215D01*
X0045979Y0061429D01*
X0045050Y0062359D01*
X0043836Y0062862D01*
X0042521Y0062862D01*
X0041307Y0062359D01*
X0040378Y0061429D01*
X0039875Y0060215D01*
X0039875Y0058901D01*
X0040378Y0057687D01*
X0041307Y0056757D01*
X0042521Y0056255D01*
X0043836Y0056255D01*
X0045393Y0057101D02*
X0047750Y0057101D01*
X0047750Y0057707D02*
X0045987Y0057707D01*
X0046238Y0058312D02*
X0047750Y0058312D01*
X0047750Y0058918D02*
X0046482Y0058918D01*
X0046482Y0059523D02*
X0047750Y0059523D01*
X0047750Y0060129D02*
X0046482Y0060129D01*
X0046267Y0060735D02*
X0047750Y0060735D01*
X0047750Y0061340D02*
X0046016Y0061340D01*
X0045463Y0061946D02*
X0047750Y0061946D01*
X0047750Y0062551D02*
X0044585Y0062551D01*
X0047750Y0063157D02*
X0039924Y0063157D01*
X0040175Y0063763D02*
X0047750Y0063763D01*
X0047750Y0064368D02*
X0040232Y0064368D01*
X0040232Y0064974D02*
X0047750Y0064974D01*
X0047750Y0065579D02*
X0040081Y0065579D01*
X0039830Y0066185D02*
X0047750Y0066185D01*
X0047750Y0066791D02*
X0045083Y0066791D01*
X0045689Y0067396D02*
X0047750Y0067396D01*
X0047750Y0068002D02*
X0046110Y0068002D01*
X0046360Y0068607D02*
X0047750Y0068607D01*
X0047750Y0069213D02*
X0046482Y0069213D01*
X0046482Y0069819D02*
X0047750Y0069819D01*
X0047750Y0070424D02*
X0046396Y0070424D01*
X0046145Y0071030D02*
X0047750Y0071030D01*
X0047750Y0071635D02*
X0045773Y0071635D01*
X0045168Y0072241D02*
X0047750Y0072241D01*
X0047750Y0072847D02*
X0043872Y0072847D01*
X0042485Y0072847D02*
X0039795Y0072847D01*
X0040046Y0073452D02*
X0047750Y0073452D01*
X0047750Y0074058D02*
X0040232Y0074058D01*
X0040232Y0074663D02*
X0047750Y0074663D01*
X0047750Y0075269D02*
X0040210Y0075269D01*
X0039959Y0075875D02*
X0047750Y0075875D01*
X0047750Y0076480D02*
X0044380Y0076480D01*
X0043836Y0076255D02*
X0045050Y0076757D01*
X0045979Y0077687D01*
X0046482Y0078901D01*
X0046482Y0080215D01*
X0045979Y0081429D01*
X0045050Y0082359D01*
X0043836Y0082862D01*
X0042521Y0082862D01*
X0041307Y0082359D01*
X0040378Y0081429D01*
X0040174Y0080937D01*
X0037202Y0080937D01*
X0036884Y0081255D01*
X0037586Y0081255D01*
X0038800Y0081757D01*
X0039729Y0082687D01*
X0040232Y0083901D01*
X0040232Y0085215D01*
X0039729Y0086429D01*
X0038800Y0087359D01*
X0037586Y0087862D01*
X0036934Y0087862D01*
X0037907Y0088835D01*
X0037907Y0091388D01*
X0038800Y0091757D01*
X0039729Y0092687D01*
X0040232Y0093901D01*
X0040232Y0095215D01*
X0039729Y0096429D01*
X0038800Y0097359D01*
X0037586Y0097862D01*
X0036271Y0097862D01*
X0035057Y0097359D01*
X0034128Y0096429D01*
X0033625Y0095215D01*
X0033625Y0093901D01*
X0034128Y0092687D01*
X0035057Y0091757D01*
X0035500Y0091574D01*
X0035500Y0089832D01*
X0032605Y0086937D01*
X0031900Y0086232D01*
X0031900Y0082835D01*
X0035500Y0079235D01*
X0036205Y0078530D01*
X0040029Y0078530D01*
X0040378Y0077687D01*
X0041307Y0076757D01*
X0042521Y0076255D01*
X0043836Y0076255D01*
X0045378Y0077086D02*
X0047750Y0077086D01*
X0047750Y0077691D02*
X0045981Y0077691D01*
X0046232Y0078297D02*
X0047750Y0078297D01*
X0047750Y0078903D02*
X0046482Y0078903D01*
X0046482Y0079508D02*
X0047750Y0079508D01*
X0047750Y0080114D02*
X0046482Y0080114D01*
X0046273Y0080719D02*
X0047750Y0080719D01*
X0047750Y0081325D02*
X0046022Y0081325D01*
X0045478Y0081931D02*
X0047750Y0081931D01*
X0047750Y0082536D02*
X0044621Y0082536D01*
X0047750Y0083142D02*
X0039918Y0083142D01*
X0040168Y0083747D02*
X0047750Y0083747D01*
X0047750Y0084353D02*
X0040232Y0084353D01*
X0040232Y0084959D02*
X0047750Y0084959D01*
X0047750Y0085564D02*
X0040088Y0085564D01*
X0039837Y0086170D02*
X0047750Y0086170D01*
X0047750Y0086775D02*
X0045068Y0086775D01*
X0045050Y0086757D02*
X0045979Y0087687D01*
X0046482Y0088901D01*
X0046482Y0090215D01*
X0045979Y0091429D01*
X0045050Y0092359D01*
X0043836Y0092862D01*
X0042521Y0092862D01*
X0041307Y0092359D01*
X0040378Y0091429D01*
X0039875Y0090215D01*
X0039875Y0088901D01*
X0040378Y0087687D01*
X0041307Y0086757D01*
X0042521Y0086255D01*
X0043836Y0086255D01*
X0045050Y0086757D01*
X0045673Y0087381D02*
X0047750Y0087381D01*
X0047750Y0087987D02*
X0046103Y0087987D01*
X0046354Y0088592D02*
X0047750Y0088592D01*
X0047750Y0089198D02*
X0046482Y0089198D01*
X0046482Y0089803D02*
X0047750Y0089803D01*
X0047750Y0090409D02*
X0046402Y0090409D01*
X0046151Y0091014D02*
X0047750Y0091014D01*
X0047750Y0091620D02*
X0045788Y0091620D01*
X0045183Y0092226D02*
X0047750Y0092226D01*
X0047750Y0092831D02*
X0043909Y0092831D01*
X0042448Y0092831D02*
X0039789Y0092831D01*
X0040040Y0093437D02*
X0047750Y0093437D01*
X0047750Y0094042D02*
X0040232Y0094042D01*
X0040232Y0094648D02*
X0047750Y0094648D01*
X0047750Y0095254D02*
X0040216Y0095254D01*
X0039965Y0095859D02*
X0047750Y0095859D01*
X0047750Y0096465D02*
X0044343Y0096465D01*
X0045363Y0097070D02*
X0047750Y0097070D01*
X0047750Y0097676D02*
X0045968Y0097676D01*
X0046226Y0098282D02*
X0047750Y0098282D01*
X0047750Y0098887D02*
X0046476Y0098887D01*
X0046482Y0099493D02*
X0047750Y0099493D01*
X0047750Y0100098D02*
X0046482Y0100098D01*
X0046280Y0100704D02*
X0047750Y0100704D01*
X0047750Y0101310D02*
X0046029Y0101310D01*
X0045493Y0101915D02*
X0047750Y0101915D01*
X0047750Y0102521D02*
X0044658Y0102521D01*
X0047750Y0103126D02*
X0039911Y0103126D01*
X0040162Y0103732D02*
X0047750Y0103732D01*
X0047750Y0104338D02*
X0040232Y0104338D01*
X0040232Y0104943D02*
X0047750Y0104943D01*
X0047750Y0105549D02*
X0040094Y0105549D01*
X0039843Y0106154D02*
X0047750Y0106154D01*
X0047750Y0106760D02*
X0045052Y0106760D01*
X0045050Y0106757D02*
X0045979Y0107687D01*
X0046482Y0108901D01*
X0046482Y0110215D01*
X0045979Y0111429D01*
X0045050Y0112359D01*
X0043836Y0112862D01*
X0042521Y0112862D01*
X0041307Y0112359D01*
X0040378Y0111429D01*
X0039875Y0110215D01*
X0039875Y0108901D01*
X0040378Y0107687D01*
X0041307Y0106757D01*
X0042521Y0106255D01*
X0043836Y0106255D01*
X0045050Y0106757D01*
X0045658Y0107366D02*
X0047750Y0107366D01*
X0047750Y0107971D02*
X0046097Y0107971D01*
X0046348Y0108577D02*
X0047750Y0108577D01*
X0047750Y0109182D02*
X0046482Y0109182D01*
X0046482Y0109788D02*
X0047750Y0109788D01*
X0047750Y0110394D02*
X0046408Y0110394D01*
X0046157Y0110999D02*
X0047750Y0110999D01*
X0047750Y0111605D02*
X0045804Y0111605D01*
X0045198Y0112210D02*
X0047750Y0112210D01*
X0047750Y0112816D02*
X0043946Y0112816D01*
X0042411Y0112816D02*
X0040216Y0112816D01*
X0040211Y0112804D02*
X0040490Y0113478D01*
X0040632Y0114193D01*
X0040632Y0114255D01*
X0037232Y0114255D01*
X0037232Y0114862D01*
X0036625Y0114862D01*
X0036625Y0118262D01*
X0036564Y0118262D01*
X0035848Y0118119D01*
X0035174Y0117840D01*
X0034568Y0117435D01*
X0034052Y0116919D01*
X0033647Y0116312D01*
X0033367Y0115638D01*
X0033225Y0114923D01*
X0033225Y0114862D01*
X0036625Y0114862D01*
X0036625Y0114255D01*
X0033225Y0114255D01*
X0033225Y0114193D01*
X0033367Y0113478D01*
X0033647Y0112804D01*
X0034052Y0112197D01*
X0034568Y0111681D01*
X0035174Y0111276D01*
X0035848Y0110997D01*
X0036564Y0110855D01*
X0036625Y0110855D01*
X0036625Y0114254D01*
X0037232Y0114254D01*
X0037232Y0110855D01*
X0037293Y0110855D01*
X0038009Y0110997D01*
X0038683Y0111276D01*
X0039289Y0111681D01*
X0039805Y0112197D01*
X0040211Y0112804D01*
X0040466Y0113422D02*
X0047750Y0113422D01*
X0047750Y0114027D02*
X0040599Y0114027D01*
X0040632Y0114862D02*
X0040632Y0114923D01*
X0040490Y0115638D01*
X0040211Y0116312D01*
X0039805Y0116919D01*
X0039289Y0117435D01*
X0038683Y0117840D01*
X0038009Y0118119D01*
X0037293Y0118262D01*
X0037232Y0118262D01*
X0037232Y0114862D01*
X0040632Y0114862D01*
X0040569Y0115238D02*
X0047750Y0115238D01*
X0047750Y0114633D02*
X0037232Y0114633D01*
X0037232Y0115238D02*
X0036625Y0115238D01*
X0036625Y0114633D02*
X0010232Y0114633D01*
X0010222Y0115238D02*
X0033288Y0115238D01*
X0033453Y0115844D02*
X0009972Y0115844D01*
X0009709Y0116450D02*
X0012050Y0116450D01*
X0012521Y0116255D02*
X0013836Y0116255D01*
X0015050Y0116757D01*
X0015979Y0117687D01*
X0016482Y0118901D01*
X0016482Y0120215D01*
X0015979Y0121429D01*
X0015050Y0122359D01*
X0013836Y0122862D01*
X0012521Y0122862D01*
X0011307Y0122359D01*
X0010378Y0121429D01*
X0009875Y0120215D01*
X0009875Y0118901D01*
X0010378Y0117687D01*
X0011307Y0116757D01*
X0012521Y0116255D01*
X0011009Y0117055D02*
X0009103Y0117055D01*
X0008070Y0117661D02*
X0010404Y0117661D01*
X0010138Y0118266D02*
X0003686Y0118266D01*
X0003686Y0117661D02*
X0005787Y0117661D01*
X0004754Y0117055D02*
X0003686Y0117055D01*
X0003686Y0116450D02*
X0004148Y0116450D01*
X0003885Y0115844D02*
X0003686Y0115844D01*
X0003686Y0113422D02*
X0003824Y0113422D01*
X0003686Y0112816D02*
X0004074Y0112816D01*
X0003686Y0112210D02*
X0004604Y0112210D01*
X0005426Y0111605D02*
X0003686Y0111605D01*
X0003686Y0110999D02*
X0010200Y0110999D01*
X0010378Y0111429D02*
X0009875Y0110215D01*
X0009875Y0108901D01*
X0010378Y0107687D01*
X0011307Y0106757D01*
X0012521Y0106255D01*
X0013836Y0106255D01*
X0015050Y0106757D01*
X0015979Y0107687D01*
X0016482Y0108901D01*
X0016482Y0110215D01*
X0015979Y0111429D01*
X0015050Y0112359D01*
X0013836Y0112862D01*
X0012521Y0112862D01*
X0011307Y0112359D01*
X0010378Y0111429D01*
X0010553Y0111605D02*
X0008431Y0111605D01*
X0009253Y0112210D02*
X0011159Y0112210D01*
X0012411Y0112816D02*
X0009783Y0112816D01*
X0010034Y0113422D02*
X0033391Y0113422D01*
X0033258Y0114027D02*
X0010232Y0114027D01*
X0009949Y0110394D02*
X0003686Y0110394D01*
X0003686Y0109788D02*
X0009875Y0109788D01*
X0009875Y0109182D02*
X0003686Y0109182D01*
X0003686Y0108577D02*
X0010009Y0108577D01*
X0010260Y0107971D02*
X0003686Y0107971D01*
X0003686Y0107366D02*
X0005074Y0107366D01*
X0004459Y0106760D02*
X0003686Y0106760D01*
X0003686Y0106154D02*
X0004014Y0106154D01*
X0003763Y0105549D02*
X0003686Y0105549D01*
X0003686Y0103732D02*
X0003695Y0103732D01*
X0003686Y0103126D02*
X0003946Y0103126D01*
X0003686Y0102521D02*
X0004294Y0102521D01*
X0004899Y0101915D02*
X0003686Y0101915D01*
X0003686Y0101310D02*
X0006138Y0101310D01*
X0007719Y0101310D02*
X0010328Y0101310D01*
X0010378Y0101429D02*
X0009875Y0100215D01*
X0009875Y0098901D01*
X0010378Y0097687D01*
X0011307Y0096757D01*
X0012521Y0096255D01*
X0013836Y0096255D01*
X0014998Y0096736D01*
X0016600Y0095135D01*
X0016600Y0093862D01*
X0017832Y0092630D01*
X0019575Y0092630D01*
X0020807Y0093862D01*
X0020807Y0095604D01*
X0019575Y0096837D01*
X0018302Y0096837D01*
X0016410Y0098728D01*
X0016482Y0098901D01*
X0016482Y0100215D01*
X0015979Y0101429D01*
X0015050Y0102359D01*
X0013836Y0102862D01*
X0012521Y0102862D01*
X0011307Y0102359D01*
X0010378Y0101429D01*
X0010864Y0101915D02*
X0008958Y0101915D01*
X0009563Y0102521D02*
X0011699Y0102521D01*
X0009911Y0103126D02*
X0015208Y0103126D01*
X0014658Y0102521D02*
X0015814Y0102521D01*
X0015493Y0101915D02*
X0016419Y0101915D01*
X0016029Y0101310D02*
X0017025Y0101310D01*
X0017630Y0100704D02*
X0016280Y0100704D01*
X0016482Y0100098D02*
X0018236Y0100098D01*
X0018842Y0099493D02*
X0016482Y0099493D01*
X0016476Y0098887D02*
X0039881Y0098887D01*
X0040132Y0098282D02*
X0016857Y0098282D01*
X0017463Y0097676D02*
X0035824Y0097676D01*
X0034769Y0097070D02*
X0018068Y0097070D01*
X0019947Y0096465D02*
X0034163Y0096465D01*
X0033892Y0095859D02*
X0020552Y0095859D01*
X0020807Y0095254D02*
X0033641Y0095254D01*
X0033625Y0094648D02*
X0020807Y0094648D01*
X0020807Y0094042D02*
X0033625Y0094042D01*
X0033817Y0093437D02*
X0020382Y0093437D01*
X0019777Y0092831D02*
X0034068Y0092831D01*
X0034589Y0092226D02*
X0015183Y0092226D01*
X0015050Y0092359D02*
X0013836Y0092862D01*
X0012521Y0092862D01*
X0011307Y0092359D01*
X0010378Y0091429D01*
X0009875Y0090215D01*
X0009875Y0088901D01*
X0010378Y0087687D01*
X0011307Y0086757D01*
X0012521Y0086255D01*
X0013836Y0086255D01*
X0015050Y0086757D01*
X0015979Y0087687D01*
X0016482Y0088901D01*
X0016482Y0090215D01*
X0015979Y0091429D01*
X0015050Y0092359D01*
X0015788Y0091620D02*
X0035389Y0091620D01*
X0035500Y0091014D02*
X0016151Y0091014D01*
X0016402Y0090409D02*
X0035500Y0090409D01*
X0035472Y0089803D02*
X0016482Y0089803D01*
X0016482Y0089198D02*
X0034866Y0089198D01*
X0034261Y0088592D02*
X0016354Y0088592D01*
X0016103Y0087987D02*
X0033655Y0087987D01*
X0033049Y0087381D02*
X0015673Y0087381D01*
X0015068Y0086775D02*
X0032444Y0086775D01*
X0031900Y0086170D02*
X0009837Y0086170D01*
X0010088Y0085564D02*
X0031900Y0085564D01*
X0031900Y0084959D02*
X0010232Y0084959D01*
X0010232Y0084353D02*
X0031900Y0084353D01*
X0031900Y0083747D02*
X0010168Y0083747D01*
X0009918Y0083142D02*
X0031900Y0083142D01*
X0032198Y0082536D02*
X0014621Y0082536D01*
X0015050Y0082359D02*
X0013836Y0082862D01*
X0012521Y0082862D01*
X0011307Y0082359D01*
X0010378Y0081429D01*
X0009875Y0080215D01*
X0009875Y0078901D01*
X0010378Y0077687D01*
X0011307Y0076757D01*
X0012521Y0076255D01*
X0013836Y0076255D01*
X0015050Y0076757D01*
X0015979Y0077687D01*
X0016482Y0078901D01*
X0016482Y0080215D01*
X0015979Y0081429D01*
X0015050Y0082359D01*
X0015478Y0081931D02*
X0032804Y0081931D01*
X0033410Y0081325D02*
X0016022Y0081325D01*
X0016273Y0080719D02*
X0034015Y0080719D01*
X0034621Y0080114D02*
X0016482Y0080114D01*
X0016482Y0079508D02*
X0035226Y0079508D01*
X0035832Y0078903D02*
X0016482Y0078903D01*
X0016232Y0078297D02*
X0040125Y0078297D01*
X0040376Y0077691D02*
X0037997Y0077691D01*
X0039073Y0077086D02*
X0040979Y0077086D01*
X0041977Y0076480D02*
X0039678Y0076480D01*
X0039283Y0072241D02*
X0041190Y0072241D01*
X0040584Y0071635D02*
X0038505Y0071635D01*
X0039997Y0068607D02*
X0016531Y0068607D01*
X0016410Y0068728D02*
X0016482Y0068901D01*
X0016482Y0070215D01*
X0015979Y0071429D01*
X0015050Y0072359D01*
X0013836Y0072862D01*
X0012521Y0072862D01*
X0011307Y0072359D01*
X0010378Y0071429D01*
X0009875Y0070215D01*
X0009875Y0068901D01*
X0010378Y0067687D01*
X0011307Y0066757D01*
X0012521Y0066255D01*
X0013836Y0066255D01*
X0014998Y0066736D01*
X0016600Y0065135D01*
X0016600Y0063862D01*
X0017832Y0062630D01*
X0019575Y0062630D01*
X0020807Y0063862D01*
X0020807Y0065604D01*
X0019575Y0066837D01*
X0018302Y0066837D01*
X0016410Y0068728D01*
X0016482Y0069213D02*
X0019122Y0069213D01*
X0018516Y0069819D02*
X0016482Y0069819D01*
X0016396Y0070424D02*
X0017910Y0070424D01*
X0017305Y0071030D02*
X0016145Y0071030D01*
X0015773Y0071635D02*
X0016699Y0071635D01*
X0016094Y0072241D02*
X0015168Y0072241D01*
X0015488Y0072847D02*
X0013872Y0072847D01*
X0012485Y0072847D02*
X0009795Y0072847D01*
X0009283Y0072241D02*
X0011190Y0072241D01*
X0010584Y0071635D02*
X0008505Y0071635D01*
X0009962Y0070424D02*
X0003686Y0070424D01*
X0003686Y0069819D02*
X0009875Y0069819D01*
X0009875Y0069213D02*
X0003686Y0069213D01*
X0003686Y0068607D02*
X0009997Y0068607D01*
X0010247Y0068002D02*
X0003686Y0068002D01*
X0003686Y0067396D02*
X0005148Y0067396D01*
X0004489Y0066791D02*
X0003686Y0066791D01*
X0003686Y0066185D02*
X0004027Y0066185D01*
X0003776Y0065579D02*
X0003686Y0065579D01*
X0003686Y0063157D02*
X0003933Y0063157D01*
X0003686Y0062551D02*
X0004263Y0062551D01*
X0003686Y0061946D02*
X0004869Y0061946D01*
X0003686Y0061340D02*
X0006065Y0061340D01*
X0007792Y0061340D02*
X0010341Y0061340D01*
X0010378Y0061429D02*
X0009875Y0060215D01*
X0009875Y0058901D01*
X0010378Y0057687D01*
X0011307Y0056757D01*
X0012521Y0056255D01*
X0013836Y0056255D01*
X0015050Y0056757D01*
X0015979Y0057687D01*
X0016482Y0058901D01*
X0016482Y0060215D01*
X0015979Y0061429D01*
X0015050Y0062359D01*
X0013836Y0062862D01*
X0012521Y0062862D01*
X0011307Y0062359D01*
X0010378Y0061429D01*
X0010894Y0061946D02*
X0008988Y0061946D01*
X0009594Y0062551D02*
X0011773Y0062551D01*
X0010175Y0063763D02*
X0016699Y0063763D01*
X0016600Y0064368D02*
X0010232Y0064368D01*
X0010232Y0064974D02*
X0016600Y0064974D01*
X0016155Y0065579D02*
X0010081Y0065579D01*
X0009830Y0066185D02*
X0015550Y0066185D01*
X0017137Y0068002D02*
X0040247Y0068002D01*
X0040669Y0067396D02*
X0038709Y0067396D01*
X0039368Y0066791D02*
X0041274Y0066791D01*
X0041773Y0062551D02*
X0039594Y0062551D01*
X0038988Y0061946D02*
X0040894Y0061946D01*
X0040341Y0061340D02*
X0037907Y0061340D01*
X0037907Y0060735D02*
X0040090Y0060735D01*
X0039875Y0060129D02*
X0037907Y0060129D01*
X0037907Y0059523D02*
X0039875Y0059523D01*
X0039875Y0058918D02*
X0037907Y0058918D01*
X0037385Y0058312D02*
X0040119Y0058312D01*
X0040370Y0057707D02*
X0037960Y0057707D01*
X0037202Y0058130D02*
X0037202Y0058130D01*
X0039058Y0057101D02*
X0040964Y0057101D01*
X0041940Y0056495D02*
X0039663Y0056495D01*
X0039299Y0052256D02*
X0041205Y0052256D01*
X0040599Y0051651D02*
X0038542Y0051651D01*
X0037094Y0051045D02*
X0040219Y0051045D01*
X0034586Y0058918D02*
X0016482Y0058918D01*
X0016482Y0059523D02*
X0035192Y0059523D01*
X0035500Y0060129D02*
X0016482Y0060129D01*
X0016267Y0060735D02*
X0035500Y0060735D01*
X0035500Y0061340D02*
X0016016Y0061340D01*
X0015463Y0061946D02*
X0034869Y0061946D01*
X0034263Y0062551D02*
X0014585Y0062551D01*
X0017305Y0063157D02*
X0009924Y0063157D01*
X0010090Y0060735D02*
X0003686Y0060735D01*
X0003686Y0060129D02*
X0009875Y0060129D01*
X0009875Y0059523D02*
X0003686Y0059523D01*
X0003686Y0058918D02*
X0009875Y0058918D01*
X0010119Y0058312D02*
X0003686Y0058312D01*
X0003686Y0057707D02*
X0005897Y0057707D01*
X0004800Y0057101D02*
X0003686Y0057101D01*
X0003686Y0056495D02*
X0004194Y0056495D01*
X0003904Y0055890D02*
X0003686Y0055890D01*
X0003686Y0053467D02*
X0003805Y0053467D01*
X0003686Y0052862D02*
X0004055Y0052862D01*
X0003686Y0052256D02*
X0004558Y0052256D01*
X0005315Y0051651D02*
X0003686Y0051651D01*
X0003686Y0051045D02*
X0010219Y0051045D01*
X0009968Y0050439D02*
X0003686Y0050439D01*
X0003686Y0049834D02*
X0009875Y0049834D01*
X0009875Y0049228D02*
X0003686Y0049228D01*
X0003686Y0048623D02*
X0009990Y0048623D01*
X0010241Y0048017D02*
X0003686Y0048017D01*
X0003686Y0047411D02*
X0005185Y0047411D01*
X0004504Y0046806D02*
X0003686Y0046806D01*
X0003686Y0046200D02*
X0004033Y0046200D01*
X0003782Y0045595D02*
X0003686Y0045595D01*
X0003686Y0043172D02*
X0003927Y0043172D01*
X0003686Y0042567D02*
X0004248Y0042567D01*
X0003686Y0041961D02*
X0004854Y0041961D01*
X0003686Y0041355D02*
X0006028Y0041355D01*
X0006185Y0040750D02*
X0003686Y0040750D01*
X0003686Y0040144D02*
X0006790Y0040144D01*
X0007300Y0039539D02*
X0003686Y0039539D01*
X0003686Y0038933D02*
X0007300Y0038933D01*
X0007300Y0038327D02*
X0003686Y0038327D01*
X0003686Y0037722D02*
X0007300Y0037722D01*
X0007300Y0037116D02*
X0003686Y0037116D01*
X0003686Y0036511D02*
X0007300Y0036511D01*
X0007300Y0035905D02*
X0003686Y0035905D01*
X0003686Y0035299D02*
X0007300Y0035299D01*
X0007300Y0034694D02*
X0003686Y0034694D01*
X0003686Y0034088D02*
X0007300Y0034088D01*
X0007300Y0033483D02*
X0003686Y0033483D01*
X0003686Y0032877D02*
X0007300Y0032877D01*
X0007463Y0032271D02*
X0003686Y0032271D01*
X0003686Y0031666D02*
X0008069Y0031666D01*
X0008674Y0031060D02*
X0003686Y0031060D01*
X0003686Y0030455D02*
X0009280Y0030455D01*
X0009875Y0029849D02*
X0003686Y0029849D01*
X0003686Y0029244D02*
X0009875Y0029244D01*
X0009984Y0028638D02*
X0003686Y0028638D01*
X0003686Y0028032D02*
X0010235Y0028032D01*
X0010638Y0027427D02*
X0003686Y0027427D01*
X0003686Y0026821D02*
X0011244Y0026821D01*
X0011903Y0036511D02*
X0009707Y0036511D01*
X0009707Y0037116D02*
X0010948Y0037116D01*
X0010363Y0037722D02*
X0009707Y0037722D01*
X0009707Y0038327D02*
X0010113Y0038327D01*
X0009875Y0038933D02*
X0009707Y0038933D01*
X0009707Y0039539D02*
X0009875Y0039539D01*
X0009875Y0040144D02*
X0009707Y0040144D01*
X0009589Y0040750D02*
X0010096Y0040750D01*
X0010347Y0041355D02*
X0008983Y0041355D01*
X0009003Y0041961D02*
X0010910Y0041961D01*
X0011809Y0042567D02*
X0009609Y0042567D01*
X0009353Y0046806D02*
X0011259Y0046806D01*
X0010653Y0047411D02*
X0008672Y0047411D01*
X0008542Y0051651D02*
X0010599Y0051651D01*
X0011205Y0052256D02*
X0009299Y0052256D01*
X0009802Y0052862D02*
X0031900Y0052862D01*
X0031900Y0053467D02*
X0010052Y0053467D01*
X0010232Y0054073D02*
X0031900Y0054073D01*
X0031900Y0054679D02*
X0010232Y0054679D01*
X0010203Y0055284D02*
X0031900Y0055284D01*
X0031900Y0055890D02*
X0009953Y0055890D01*
X0009663Y0056495D02*
X0011940Y0056495D01*
X0010964Y0057101D02*
X0009058Y0057101D01*
X0007960Y0057707D02*
X0010370Y0057707D01*
X0014417Y0056495D02*
X0032164Y0056495D01*
X0032605Y0056937D02*
X0032605Y0056937D01*
X0032769Y0057101D02*
X0015393Y0057101D01*
X0015987Y0057707D02*
X0033375Y0057707D01*
X0033981Y0058312D02*
X0016238Y0058312D01*
X0020102Y0063157D02*
X0033933Y0063157D01*
X0033682Y0063763D02*
X0020708Y0063763D01*
X0020807Y0064368D02*
X0033625Y0064368D01*
X0033625Y0064974D02*
X0020807Y0064974D01*
X0020807Y0065579D02*
X0033776Y0065579D01*
X0034027Y0066185D02*
X0020226Y0066185D01*
X0019621Y0066791D02*
X0034489Y0066791D01*
X0035148Y0067396D02*
X0017742Y0067396D01*
X0020103Y0071635D02*
X0035352Y0071635D01*
X0034574Y0072241D02*
X0019498Y0072241D01*
X0018892Y0072847D02*
X0034062Y0072847D01*
X0033811Y0073452D02*
X0018287Y0073452D01*
X0017681Y0074058D02*
X0033625Y0074058D01*
X0033625Y0074663D02*
X0017075Y0074663D01*
X0016470Y0075269D02*
X0033647Y0075269D01*
X0033898Y0075875D02*
X0009959Y0075875D01*
X0009678Y0076480D02*
X0011977Y0076480D01*
X0010979Y0077086D02*
X0009073Y0077086D01*
X0007997Y0077691D02*
X0010376Y0077691D01*
X0010125Y0078297D02*
X0003686Y0078297D01*
X0003686Y0078903D02*
X0009875Y0078903D01*
X0009875Y0079508D02*
X0003686Y0079508D01*
X0003686Y0080114D02*
X0009875Y0080114D01*
X0010084Y0080719D02*
X0003686Y0080719D01*
X0003686Y0081325D02*
X0006101Y0081325D01*
X0004884Y0081931D02*
X0003686Y0081931D01*
X0003686Y0082536D02*
X0004279Y0082536D01*
X0003939Y0083142D02*
X0003686Y0083142D01*
X0003686Y0083747D02*
X0003689Y0083747D01*
X0003686Y0085564D02*
X0003770Y0085564D01*
X0003686Y0086170D02*
X0004020Y0086170D01*
X0003686Y0086775D02*
X0004474Y0086775D01*
X0005111Y0087381D02*
X0003686Y0087381D01*
X0003686Y0087987D02*
X0010254Y0087987D01*
X0010003Y0088592D02*
X0003686Y0088592D01*
X0003686Y0089198D02*
X0009875Y0089198D01*
X0009875Y0089803D02*
X0003686Y0089803D01*
X0003686Y0090409D02*
X0009955Y0090409D01*
X0010206Y0091014D02*
X0003686Y0091014D01*
X0003686Y0091620D02*
X0005389Y0091620D01*
X0004589Y0092226D02*
X0003686Y0092226D01*
X0003686Y0092831D02*
X0004068Y0092831D01*
X0003817Y0093437D02*
X0003686Y0093437D01*
X0003686Y0095859D02*
X0003892Y0095859D01*
X0003686Y0096465D02*
X0004163Y0096465D01*
X0003686Y0097070D02*
X0004769Y0097070D01*
X0005824Y0097676D02*
X0003686Y0097676D01*
X0003686Y0098282D02*
X0010132Y0098282D01*
X0009881Y0098887D02*
X0003686Y0098887D01*
X0003686Y0099493D02*
X0009875Y0099493D01*
X0009875Y0100098D02*
X0003686Y0100098D01*
X0003686Y0100704D02*
X0010078Y0100704D01*
X0010389Y0097676D02*
X0008034Y0097676D01*
X0009088Y0097070D02*
X0010994Y0097070D01*
X0012014Y0096465D02*
X0009694Y0096465D01*
X0009965Y0095859D02*
X0015875Y0095859D01*
X0016481Y0095254D02*
X0010216Y0095254D01*
X0010232Y0094648D02*
X0016600Y0094648D01*
X0016600Y0094042D02*
X0010232Y0094042D01*
X0010040Y0093437D02*
X0017025Y0093437D01*
X0017630Y0092831D02*
X0013909Y0092831D01*
X0012448Y0092831D02*
X0009789Y0092831D01*
X0009268Y0092226D02*
X0011174Y0092226D01*
X0010569Y0091620D02*
X0008468Y0091620D01*
X0008746Y0087381D02*
X0010684Y0087381D01*
X0011289Y0086775D02*
X0009383Y0086775D01*
X0009579Y0082536D02*
X0011736Y0082536D01*
X0010879Y0081931D02*
X0008973Y0081931D01*
X0007756Y0081325D02*
X0010335Y0081325D01*
X0014380Y0076480D02*
X0034179Y0076480D01*
X0034784Y0077086D02*
X0015378Y0077086D01*
X0015981Y0077691D02*
X0035860Y0077691D01*
X0037756Y0081325D02*
X0040335Y0081325D01*
X0040879Y0081931D02*
X0038973Y0081931D01*
X0039579Y0082536D02*
X0041736Y0082536D01*
X0041289Y0086775D02*
X0039383Y0086775D01*
X0038746Y0087381D02*
X0040684Y0087381D01*
X0040254Y0087987D02*
X0037059Y0087987D01*
X0037665Y0088592D02*
X0040003Y0088592D01*
X0039875Y0089198D02*
X0037907Y0089198D01*
X0037907Y0089803D02*
X0039875Y0089803D01*
X0039955Y0090409D02*
X0037907Y0090409D01*
X0037907Y0091014D02*
X0040206Y0091014D01*
X0040569Y0091620D02*
X0038468Y0091620D01*
X0039268Y0092226D02*
X0041174Y0092226D01*
X0042014Y0096465D02*
X0039694Y0096465D01*
X0039088Y0097070D02*
X0040994Y0097070D01*
X0040389Y0097676D02*
X0038034Y0097676D01*
X0038958Y0101915D02*
X0040864Y0101915D01*
X0041699Y0102521D02*
X0039563Y0102521D01*
X0039398Y0106760D02*
X0041305Y0106760D01*
X0040699Y0107366D02*
X0038783Y0107366D01*
X0040260Y0107971D02*
X0016097Y0107971D01*
X0016348Y0108577D02*
X0040009Y0108577D01*
X0039875Y0109182D02*
X0016482Y0109182D01*
X0016482Y0109788D02*
X0039875Y0109788D01*
X0039949Y0110394D02*
X0016408Y0110394D01*
X0016157Y0110999D02*
X0035843Y0110999D01*
X0036625Y0110999D02*
X0037232Y0110999D01*
X0037232Y0111605D02*
X0036625Y0111605D01*
X0036625Y0112210D02*
X0037232Y0112210D01*
X0037232Y0112816D02*
X0036625Y0112816D01*
X0036625Y0113422D02*
X0037232Y0113422D01*
X0037232Y0114027D02*
X0036625Y0114027D01*
X0036625Y0115844D02*
X0037232Y0115844D01*
X0037232Y0116450D02*
X0036625Y0116450D01*
X0036625Y0117055D02*
X0037232Y0117055D01*
X0037232Y0117661D02*
X0036625Y0117661D01*
X0034906Y0117661D02*
X0015953Y0117661D01*
X0016219Y0118266D02*
X0039705Y0118266D01*
X0039539Y0118872D02*
X0016470Y0118872D01*
X0016482Y0119478D02*
X0042875Y0119478D01*
X0042875Y0118872D02*
X0043482Y0118872D01*
X0043482Y0118266D02*
X0042875Y0118266D01*
X0042875Y0117661D02*
X0043482Y0117661D01*
X0043482Y0117055D02*
X0042875Y0117055D01*
X0042875Y0116450D02*
X0043482Y0116450D01*
X0045193Y0116450D02*
X0047750Y0116450D01*
X0047750Y0117055D02*
X0045913Y0117055D01*
X0046365Y0117661D02*
X0047750Y0117661D01*
X0047750Y0118266D02*
X0046652Y0118266D01*
X0046818Y0118872D02*
X0047750Y0118872D01*
X0047750Y0119478D02*
X0043482Y0119478D01*
X0041164Y0116450D02*
X0040119Y0116450D01*
X0040405Y0115844D02*
X0047750Y0115844D01*
X0047750Y0120083D02*
X0046850Y0120083D01*
X0046719Y0120689D02*
X0047750Y0120689D01*
X0047750Y0121294D02*
X0046468Y0121294D01*
X0046068Y0121900D02*
X0047750Y0121900D01*
X0047750Y0122506D02*
X0045433Y0122506D01*
X0040924Y0122506D02*
X0014695Y0122506D01*
X0015509Y0121900D02*
X0040289Y0121900D01*
X0039889Y0121294D02*
X0016035Y0121294D01*
X0016286Y0120689D02*
X0039638Y0120689D01*
X0039507Y0120083D02*
X0016482Y0120083D01*
X0015348Y0117055D02*
X0034188Y0117055D01*
X0033738Y0116450D02*
X0014307Y0116450D01*
X0013946Y0112816D02*
X0033641Y0112816D01*
X0034043Y0112210D02*
X0015198Y0112210D01*
X0015804Y0111605D02*
X0034682Y0111605D01*
X0038015Y0110999D02*
X0040200Y0110999D01*
X0040553Y0111605D02*
X0039175Y0111605D01*
X0039814Y0112210D02*
X0041159Y0112210D01*
X0040444Y0117055D02*
X0039669Y0117055D01*
X0039992Y0117661D02*
X0038951Y0117661D01*
X0035074Y0107366D02*
X0015658Y0107366D01*
X0015052Y0106760D02*
X0034459Y0106760D01*
X0034014Y0106154D02*
X0009843Y0106154D01*
X0010094Y0105549D02*
X0033763Y0105549D01*
X0033625Y0104943D02*
X0016795Y0104943D01*
X0017401Y0104338D02*
X0033625Y0104338D01*
X0033695Y0103732D02*
X0018007Y0103732D01*
X0018612Y0103126D02*
X0033946Y0103126D01*
X0034294Y0102521D02*
X0019218Y0102521D01*
X0019823Y0101915D02*
X0034899Y0101915D01*
X0015270Y0096465D02*
X0014343Y0096465D01*
X0011305Y0106760D02*
X0009398Y0106760D01*
X0008783Y0107366D02*
X0010699Y0107366D01*
X0009887Y0118872D02*
X0003686Y0118872D01*
X0003686Y0119478D02*
X0009875Y0119478D01*
X0009875Y0120083D02*
X0003686Y0120083D01*
X0003686Y0120689D02*
X0010071Y0120689D01*
X0010322Y0121294D02*
X0003686Y0121294D01*
X0003686Y0121900D02*
X0010849Y0121900D01*
X0011662Y0122506D02*
X0003686Y0122506D01*
X0003686Y0077691D02*
X0005860Y0077691D01*
X0004784Y0077086D02*
X0003686Y0077086D01*
X0003686Y0076480D02*
X0004179Y0076480D01*
X0003898Y0075875D02*
X0003686Y0075875D01*
X0003686Y0073452D02*
X0003811Y0073452D01*
X0003686Y0072847D02*
X0004062Y0072847D01*
X0003686Y0072241D02*
X0004574Y0072241D01*
X0005352Y0071635D02*
X0003686Y0071635D01*
X0003686Y0071030D02*
X0010212Y0071030D01*
X0010669Y0067396D02*
X0008709Y0067396D01*
X0009368Y0066791D02*
X0011274Y0066791D01*
X0015152Y0052256D02*
X0032478Y0052256D01*
X0033084Y0051651D02*
X0015758Y0051651D01*
X0016138Y0051045D02*
X0033690Y0051045D01*
X0034295Y0050439D02*
X0016389Y0050439D01*
X0014548Y0042567D02*
X0030835Y0042567D01*
X0030229Y0041961D02*
X0015447Y0041961D01*
X0016010Y0041355D02*
X0029624Y0041355D01*
D13*
X0030104Y0040133D02*
X0034304Y0044333D01*
X0036704Y0044333D01*
X0036929Y0044558D01*
X0036704Y0049733D02*
X0042704Y0049733D01*
X0043179Y0049558D01*
X0036704Y0049733D02*
X0033104Y0053333D01*
X0033104Y0055733D01*
X0036704Y0059333D01*
X0036704Y0064133D01*
X0036929Y0064558D01*
X0043179Y0069558D02*
X0042704Y0070133D01*
X0019904Y0070133D01*
X0015704Y0074333D01*
X0007304Y0074333D01*
X0006929Y0074558D01*
X0013304Y0070133D02*
X0013179Y0069558D01*
X0013304Y0070133D02*
X0018704Y0064733D01*
X0006929Y0044558D02*
X0007304Y0044333D01*
X0007304Y0041333D01*
X0008504Y0040133D01*
X0008504Y0032933D01*
X0010304Y0031133D01*
X0010904Y0031133D01*
X0012704Y0029333D01*
X0013179Y0029558D01*
X0013179Y0039558D02*
X0013304Y0040133D01*
X0030104Y0040133D01*
X0043179Y0079558D02*
X0042704Y0079733D01*
X0036704Y0079733D01*
X0033104Y0083333D01*
X0033104Y0085733D01*
X0036704Y0089333D01*
X0036704Y0094133D01*
X0036929Y0094558D01*
X0043179Y0099558D02*
X0042704Y0100133D01*
X0019904Y0100133D01*
X0015704Y0104333D01*
X0007304Y0104333D01*
X0006929Y0104558D01*
X0013304Y0100133D02*
X0013179Y0099558D01*
X0013304Y0100133D02*
X0018704Y0094733D01*
D14*
X0018704Y0094733D03*
X0018704Y0064733D03*
M02*
