             ;
             ;  FLIP-FLOP
             ;
             ;      ORG  8200H
             ;
             ADRES: EQU 83EEH       モニタ・サブルーチンおよびモニタ領域の定義．
             DATA:  EQU 83ECH
             DIG:   EQU 83F8H
             D3:    EQU 02EFH
             INPUT: EQU 0223H
             KEYIN: EQU 0216H
             RGDSP: EQU 01A1H
             ;
             ;  INITIAL
             ;
8200  21FF83 INIT:  LXI  H,DIG＋7   ゲーム盤のイニシャライズを行ない，LED表示をクリアする．
8203  AF            XRA  A
8204  0614          MVI  B,20
             ;
8206  77     INIT1: MOV  M,A
8207  2B            DCX  H
8208  05            DCR  B
8209  C20682        JNZ  INIT1
             ;
             ;  INITIAL-VALUE
             ;
820C  CD1602 INTV:  CALL KEYIN      乱数発生の初期値をゲーム盤より入力し，これをLEDに表示する．確認後，最初の乱数を発生する．
820F  47            MOV  B,A
8210  FE15          CPI  15H
8212  CA2D82        JZ   INTV9
8215  E6F0          ANI  0F0H
8217  C22A82        JNZ  INTV1
821A  2AEC83        LHLD DATA
821D  29            DAD  H
821E  29            DAD  H
821F  29            DAD  H
8220  29            DAD  H
8221  78            MOV  A,B
8222  AD            XRA  L
8223  6F            MOV  L,A
8224  22ECB3        SHLD DATA
8227  CDA101        CALL RGDSP
822A  C30C82 INTV1: JMP  INTV
822D  2AEC83 INTV9: LHLD DATA
823O  0601          MVI  B,1
8232  48            MOV  C,B
8233  CD7A83        CALL RANDM
             ;
             ;  PREPARATION
             ;
8236  AF     PREP:  XRA  A          ゲーム開始のための準備を行なう．
8237  32BB83        STA  CNT
823A  67            MOV  H,A
823B  6F            MOV  L,A
823C  0608          MVI  B,8
823E  48            MOV  C,B
823F  CD7A83        CALL RANDM
             ;
             ;  PATTERN RESET
             ;
8242  3EFF   PATR:  MVI  A,0FFH     LED表示パターンをリセットする．
8244  32BA83        STA  FLAG
             ;
             ;  GAME
             ;
             GAME:  EQU  8247H      ゲームの処理
             ;
             ;  PATTERN DISPLAY
             ;
8247  3ABA83 PATD:  LDA  FLAG       FLAGによって示される．最新の状態をLEDに固定表示する．
824A  4F            MOV  C,A
824B  21B783        LXI  H,PAT＋7
824E  11AE83        LXI  D,CHK＋7
8251  0608          MVI  B,8
8253  3663   PATD1: MVI  M,63H
8255  1A            LDAX D
8256  A1            ANA  C
8257  C25C82        JNZ  PATD2
825A  365C          MVI  M,5CH
825C  2B     PATD2: DCX  H
825D  1B            DCX  D
825E  05            DCR  B
825F  C25382        JNZ  PATD1
8262  3EFF   PATD3: MVI  A,0FFH
8264  32B983        STA  BLINK
8267  3E09          MVI  A,9
8269  32B883        STA  POS
826C  CD1183        CALL DSPLY
             ;
             ;  GAME1
             ;
826F  3ABA83 GAME1: LDA  FLAG       最終パターン到達および入力回数のチェック
8272  B7            ORA  A
8273  CADD82        JZ   RESLT
8276  3ABB83        LDA  CNT
8279  FE64          CPI  64H
827B  CAFA82        JZ   OVER
             ;
             ;  POSITION GET
             ;
827E  AF     POSG:  XRA  A          反転位置指定の入力および位置のブリンク表示
827F  32B883        STA  POS
8282  32B983        STA  BLINK
8285  CD2302 POSG1: CALL INPUT
8288  FEFF          CPI  0FFH
828A  CAAB82        JZ   POSG2
828D  FE10          CPI  10H
828F  CA3682        JZ   PREP
8292  FE11          CPI  11H
8294  CA4282        JZ   PATR
8297  FE15          CPI  15H
8299  CAC582        JZ   POSG4
829C  B7            ORA  A
829D  CAAB82        JZ   POSG2
82A0  47            MOV  B,A
82A1  3D            DCR  A
82A2  E6F8          ANI  0F8H
82A4  C2AB82        JNZ  POSG2
82A7  78            MOV  A,B
82A8  32B883        STA  POS
82AB  3AB983 POSG2: LDA  BLINK
82AE  EEFF          XRI  0FFH
82B0  32B983        STA  BLINK
82B3  3AB883        LDA  POS
82B6  B7            ORA  A
82B7  CAC282        JZ   POSG3
82BA  CD1183        CALL DSPLY
82BD  3E0B          MVI  A,11
82BF  CD9783        CALL TWAIT
82C2  C38582 POSG3: JMP  POSG1
82C5  3AB883 POSG4: LDA  POS
82C8  B7            ORA  A
82C9  CAC282        JZ   POSG3
82CC  3ABB83        LDA  CNT
82CF  3C            INR  A
82DO  27            DAA
82D1  32BB83        STA  CNT
82D4  CD1183        CALL DSPLY
             ;
             ;  GAME9
             ;
82D7  CD4B83 GAME9: CALL FUNC       指定位置とそれに伴う位置のパターンを反転する．
82DA  C34782        JMP  GAME
             ;
             ;  RESULT
             ;
82DD  CD1602 RESLT: CALL KEYIN      最終パターン到達時の処理を行なう．キーインに従い，入力回数のLED表示をするか，あるいは次のゲームを行なう．
82E0  FE10          CPI  10H
82E2  CA3682        JZ   PREP
82E5  FE13          CPI  13H
82E7  C2DD82        JNZ  RESLT
82EA  AF            XRA  A
82EB  32ED83        STA  DTAT＋1
82EE  3ABB83        LDA  CNT
82F1  32EC83        STA  DATA
82F4  CDA1O1        CALL RGDSP
82F7  C3DD82        JMP  RESLT
             ;
             ;  OVER
             ;
82FA  21FF83 OVER:  LXI  H,DIG＋7   入力回数≧64のときの処理を行なう“−”をLEDの全ケタに表示する．
82FD  0608          MVI  B,8
82FF  3640   OVER1: MVI  M,40H
8301  2B            DCX  H
8202  05            DCR  B
8203  C2FF82        JNZ  OVER1
8206  CD1602 OVER2: CALL KEYIN
8209  FE10          CPI  10H
820B  CA3682        JZ   PREP
820E  C30683        JMP  OVER2
             ;
             ;  SUBROUTINE DSPLY
             ;
8311  AF     DSPLY: XRA  A          BLINK, POSの内容に従って，LEDにパターンを表示する．
8312  47            MOV  B,A
8313  3AB883        LDA  POS
8316  4F            MOV  C,A  　    POS：LEDのケタBLINK＝FFのとき，PAT内にストアされているパターンを表示する．BLINK ＝00のとき，ブランクを表示する．
8317  21A683        LXI  H,CHK−1
831A  09            DAD  B
831B  7E            MOV  A,M
831C  2F            CMA
831D  32BC83        STA  WRK1
8320  01B783        LXI  B,PAT＋7
8323  11FF83        LXI  D,DIG＋7
8326  21AE83        LXI  H,CHK＋7
8329  3E08          MVI  A,08H
832B  32BD83        STA  WRK2
832E  3AB983 DSPL1: LDA  BLINK
8331  B6            ORA  M
8332  E5            PUSH H
8333  21BC83        LXI  H,WRK1
8336  A6            ANA  M
8337  E1            POP  H
8338  CA3C83        JZ   DSPL2
833B  0A            LDAX B
833C  12     DSPL2: STAX D
833D  0B            DCX  B
833E  1B            DCX  D
833F  2B            DCX  H
834O  3ABD83        LDA  WRK2
8343  3D            DCR  A
8344  C8            RZ
8345  32BD83        STA  WRK2
8348  C32EB3        JMP  DSPL1
             ;
             ;  SUBROUTINE FUNC
             ;
834B  AF     FUNC:  XRA  A　　　　　指定位置のパターンおよび指定位置とペアとなる位置のパターンを反転する．
834C  67            MOV  H,A
834D  6F            MOV  L,A
834E  4F            MOV  C,A
834F  3AB883        LDA  POS
8352  47            MOV  B,A
8353  CD7A83        CALL RANDM
8356  21A783        LXI  H,CHK
8359  E5            PUSH H
835A  AF            XRA  A
835B  47            MOV  B,A
835C  3AB883        LDA  POS
835F  3D            DCR  A
8360  4F            MOV  C,A
8361  09            DAD  B
8362  3ABA83        LDA  FLAG
8365  AE            XRA  M
8366  57            MOV  D,A
8367  32BA83        STA  FLAG
836A  E1            POP  H
836B  3ABD83        LDA  RND＋1
836E  E607          ANI  07H
8370  B9            CMP  C
8371  C8            RZ
8372  4F            MOV  C,A
8373  09            DAD  B
8374  7A            MOV  A,D
8375  AE            XRA  M
8376  32BA83        STA  FLAG
8379  C9            RET
             ;
             ;  SUBROUTINE RANDM
             ;
837A  7C     RANDM: MOV  A,H        下記の指定に従って乱数を発生し，これをRNDにセットする．
837B  B5            ORA  L
837C  C28283        JNZ  RAND1
837F  2AA583        LHLD RNDM      （H）（L）＝乱数発生初期値
8382  54     RAND1: MOV  D,H        （D）＝乱数発生回数
8383  5D            MOV  E,L        （C）＝乱数値のRNDM
8384  29            DAD  H                        へのストア指示
8385  19            DAD  D          乱数＝乱数×259
8386  7B            MOV  A,E        　（259＝103H）
8387  84            ADD  H
8388  67            MOV  H,A
8389  22BC83        SHLD RND
838C  05            DCR  B
838D  C28283        JNZ  RAND1
839O  AF     RAND2: XRA  A
8391  B1            ORA  C
8392  C8            RZ
8393  22A583        SHLD RNDM
8396  C9            RET
             ;
             ;  SUBROUTINE TWAIT
             ;
8397  CDEF02 TWAIT: CALL D3        約27×（A）sec 分WAITする．
839A  3D            DCR  A
839B  C29783        JNZ  TWAIT
839E  C9            RET
             ;
             ;  REMAINING SPACE
             ;
839F  0000          DW   0          読者が関数（FUNC）を変更するときに使用可能なエリア
83A1  0000          DW   0
83A3  0000          DW   0
             ;
             ;  DATA AREAS          データ・エリア
             ;
83A5  5A     RNDM:  DB   5AH        乱数値のストア・エリア
83A6  36            DB   36H
83A7  80     CHK:   DB   80H        LED表示パターンの反転操作テーブル
83A8  40            DB   40H
83A9  20            DB   20H        指定位置のブリンク表示テーブル
83AA  10            DB   10H
83AB  08            DB   08H
83AC  04            DB   04H
83AD  02            DB   02H
83AE  01            DB   01H
83AF  00            DB   00H
83B0  00     PAT:   DB   0          LEDの表示パターン・コードのセーブ・エリア
83B1  00            DB   0
83B2  00            DB   0
83B3  00            DB   0
83B4  00            DB   0
83B5  00            DB   0
83B6  00            DB   0
83B7  00            DB   0
83B8  00     POS:   DB   0          指定位置セーブ・エリア
83B9  00     BLINK: DB   0          ブリンク表示制御・エリア
83BA  00     FLAG:  DB   0          表示パターンのビットSW
83BB  00     CNT:   DB   0          入力回数のカウンタ
83BC  00     WRK1:  DB   0          ワーク・エリア１
83BD  00     WRK2:  DB   0          ワーク・エリア２
             RND:   EQU  83BCH      乱数値のセーブ・エリア
             ;
83BE                END  ; END OF FLIP-FLOP

