; Common */*.rom disassembly symbol file
; See header.z80 for naming conventions and references.

rst0:           equ  0x00
rst1:           equ  0x08
rst2:           equ  0x10
rst3:           equ  0x18
rst4:           equ  0x20
trap:           equ  0x24
rst5:           equ  0x28
rst5.5:         equ  0x2C
rst6:           equ  0x30
rst6.5:         equ  0x34
rst7:           equ  0x38
rst7.5:         equ  0x3C
