;
; Naming conventions (`X` = upper-case hexadecimal digit`):
; • unkXXXX:  unknown routine/data
; • valXXXX:  spurious label assigned to a value load (e.g., count in B)
; • _XXXX:    local label (may be replaced with +/- later)
; • _L_XXXX:  local label for loop
; • _S_XXXX:  local label for skip
; • jp_*:     trampoline for short relative branches (typically conditional jr)
;
; Comment conventions:
; • ▶$xxxx (digraph `PR`) indicates "well known addresses" that are called
;   by third-party programmers. These are gleaned from documentation such
;   as the references above.
; • Symbols followed by register names indicate:
;   ♠: input and/or output for routine. ♡: preserved. ♣: destroyed.
;

            relaxed on
            cpu 8085
            z80syntax exclusive

;   We cannot use RIM and SIM in "z80syntax exclusive" mode, but don't want
;   to use mixed syntax ("z80syntax on") because Intel syntax takes
;   precedence, making `jp $xxxx` a "jump on positive" instead of "jump
;   always." So instead we make macros for these 8085 instructions.
rim         macro {EXPAND}
            db    $20
            endm
sim         macro {EXPAND}
            db    $30
            endm

; z80dasm 1.1.6
; command line: z80dasm -a -l -g $0000 -b rom/disassembly/TK85.block -S /dev/fd/63 rom/TK85.bin

            org $0000

segments    equ  $83F8          ; leftmost 7-segment display
;segments+7 equ  $83FF          ; rightmost 7-segment display

rst0        ld   a,$92          ;0000
            out  ($FB),a                ;0002
jpcoldstart jp   coldstart
            nop                 ;0007
rst1        jp   $83B1          ;0008
            nop                 ;000b
            nop                 ;000c
            nop                 ;000d
            nop                 ;000e
            nop                 ;000f
rst2        jp   $83B4          ;0010
            nop                 ;0013
            nop                 ;0014
            nop                 ;0015
            nop                 ;0016
            nop                 ;0017
rst3        jp   $83B7          ;0018
            nop                 ;001b
            nop                 ;001c
            nop                 ;001d
            nop                 ;001e
            nop                 ;001f
rst4        jp   $83BA          ;0020
            nop                 ;0023
trap        jp   unk01D3                ;0024
            nop                 ;0027
rst5        jp   $83BD          ;0028
            nop                 ;002b
rst5.5      jp   $83C0          ;002c
            nop                 ;002f
rst6        jp   $83C3          ;0030
            nop                 ;0033
rst6.5      jp   $F125          ;0034
            nop                 ;0037
rst7        jp   $83C6          ;0038
            nop                 ;003b
rst7.5      jp   unk0219

sub_003F            ld   hl,$83C9               ;003f
unk0042     xor  a                      ;0042
_L_0043     ld   (hl),a                 ;0043
            inc  hl                     ;0044
            dec  b                      ;0045
            jp   nz,_L_0043             ;0046
            ld   ($83DC),a              ;0049
            ld   a,$C9          ;004c
            ld   ($83CE),a              ;004e
            ld   ($83CB),a              ;0051
            ld   a,$D3          ;0054
            ld   ($83CC),a              ;0056
            ld   a,$DB          ;0059
            ld   ($83C9),a              ;005b
            ret

coldstart   ld   hl,$8391               ;005f
unk0062     ld   a,(hl)                 ;0062
            cpl                 ;0063
            ld   (hl),a                 ;0064
            cp   (hl)                   ;0065
            jp   z,unk006A              ;0066
            halt                        ;0069
unk006A     inc  l                      ;006a
            jp   nz,unk0062             ;006b
            ld   sp,$83B1               ;006e
            ld   b,$2F          ;0071
            call sub_003F               ;0073
            ld   hl,$8391               ;0076
            ld   ($83E2),hl             ;0079
unk007C     call sub_056C               ;007c
            call sub_0684               ;007f
unk0082     and  $10            ;0082
            jp   z,unk00BB              ;0084
            ld   a,($83DF)              ;0087
            rrca                        ;008a
            jp   c,unk0095              ;008b
            ld   a,($83DE)              ;008e
            rrca                        ;0091
            jp   nc,unk009B             ;0092
unk0095     ld   a,b                    ;0095
            cp   $16            ;0096
            jp   c,unk007C              ;0098
unk009B     ld   a,b                    ;009b
            and  $0F            ;009c
            ld   b,$00          ;009e
            add  a,a                    ;00a0
            ld   c,a                    ;00a1
            ld   hl,unktabC             ;00a2
            add  hl,bc                  ;00a5
            ld   a,(hl)                 ;00a6
            inc  hl                     ;00a7
            ld   h,(hl)                 ;00a8
            ld   l,a                    ;00a9
            jp   (hl)

;   XXX unknown table of addresses to which we jump
unktabC     dw    unk0197               ;00ab
            dw    unk01A4               ;00ad
            dw    unk0166               ;00af
            dw    unk018D               ;00b1
            dw    unk0183               ;00b3
            dw    unk0279               ;00b5
            dw    unk00DA               ;00b7
            dw    unk00E9       ;???

unk00BB     ld   a,($83DE)              ;00bb
            rrca                        ;00be
            jp   c,unk0112              ;00bf
            ld   a,($83DF)              ;00c2
            rrca                        ;00c5
            jp   c,unk00F2              ;00c6
            call sub_05D2               ;00c9
            ld   a,($83EC)              ;00cc
            or   b                      ;00cf
            ld   ($83EC),a              ;00d0
            ld   a,b                    ;00d3
            ld   ($83CF),a              ;00d4
            jp   unk007C                ;00d7
unk00DA     call clrDBDE                ;00da
            ld   ($83DF),a              ;00dd
unk00E0     call sub_0629               ;00e0
unk00E3     call sub_0639               ;00e3
            jp   unk007C                ;00e6
unk00E9     call clrDBDE                ;00e9
            ld   ($83DE),a              ;00ec
            jp   unk00E0                ;00ef
unk00F2     ld   a,b                    ;00f2
            cp   $0A            ;00f3
            jp   c,unk007C              ;00f5
            sub  $08            ;00f8
            call setbitN                ;00fa
            ld   ($83DF),a              ;00fd
            and  $C0            ;0100
            jp   z,unk007C              ;0102
            rla                 ;0105
            rla                 ;0106
            ld   ($83D6),a              ;0107
            ld   a,$1D          ;010a
            ld   ($83D5),a              ;010c
            jp   unk007C

unk0112     ld   a,b                    ;0112
            cp   $07            ;0113
            jp   nc,unk007C             ;0115
            call setbitN                ;0118
            rlca                        ;011b
            ld   ($83DE),a              ;011c
            ld   a,b                    ;011f
            ld   b,$00          ; MSB of offset is 0
            add  a,a            ; word offset
            ld   c,a                    ;0123
            ld   hl,unktabA             ;0124
            add  hl,bc                  ;0127
            ld   a,(hl)                 ;0128
            inc  hl                     ;0129
            ld   h,(hl)                 ;012a
            ld   l,a                    ;012b
            ld   ($83D5),hl             ;012c
            ld   hl,unktabB             ;012f
            add  hl,bc                  ;0132
            ld   a,(hl)                 ;0133
            inc  hl                     ;0134
            ld   h,(hl)                 ;0135
            ld   l,a                    ;0136
            ld   a,(hl)                 ;0137
            inc  hl                     ;0138
            ld   h,(hl)                 ;0139
            ld   l,a                    ;013a
            ld   ($83EC),hl             ;013b
            ld   hl,$1D1D               ;013e
            ld   ($83D3),hl             ;0141
            call sub_0664               ;0144
            jp   unk007C

unktabA     dw    $0A0F         ;014a
            dw    $0B0C         ;014c
            dw    $0D0E         ;014e
            dw    $1012         ;0150
            dw    $0515         ;0152
            dw    $0B15         ;0154
            dw    $0B0D

unktabB     dw    $83EA         ;0158
            dw    $83E8         ;015a
            dw    $83E6         ;015c
            dw    $83E4         ;015e
            dw    $83E2         ;0160
            dw    $83F0         ;0162
            dw    $83F2         ;0164
unk0166     call sub_017C               ;0166
unk0169     ld   a,(hl)                 ;0169
            ld   ($83EC),a              ;016a
            call sub_0651               ;016d
            call sub_0643               ;0170
            call sub_066D               ;0173
            call clrDBDE                ;0176
            jp   unk007C

sub_017C    ld   hl,($83EC)             ;017c
            ld   ($83EE),hl             ;017f
            ret                 ;0182
unk0183     ld   hl,($83EE)             ;0183
            inc  hl                     ;0186
            ld   ($83EE),hl             ;0187
            jp   unk0169                ;018a
unk018D     ld   hl,($83EE)             ;018d
            dec  hl                     ;0190
            ld   ($83EE),hl             ;0191
            jp   unk0169                ;0194
unk0197     ld   hl,($83EE)             ;0197
            ld   ($83E0),hl             ;019a
            jp   unk01A4                ;019d
            nop                 ;01a0
            jp   unk07CF                ;01a1
unk01A4     ld   hl,($83E2)             ;01a4
            ld   sp,hl                  ;01a7
            ld   hl,($83E0)             ;01a8
            push hl                     ;01ab
            ld   hl,($83EA)             ;01ac
            push hl                     ;01af
            ld   hl,($83E4)             ;01b0
            push hl                     ;01b3
            ld   hl,($83E8)             ;01b4
            push hl                     ;01b7
            pop  bc                     ;01b8
            ld   hl,($83E6)             ;01b9
            ex   de,hl                  ;01bc
            jp   unk01C3                ;01bd
            jp   unk07DF                ;01c0
unk01C3     pop  hl                     ;01c3
            xor  a                      ;01c4
            out  ($FA),a                ;01c5
            dec  a                      ;01c7
            ld   ($83DC),a              ;01c8
            ld   a,$98          ;01cb
            sim
            out  ($FA),a                ;01ce
            pop  af                     ;01d0
            ei                  ;01d1
            ret                 ;01d2
unk01D3     push af                     ;01d3
            ld   a,($83DC)              ;01d4
            and  a                      ;01d7
            jp   nz,unk01E4             ;01d8
            ld   sp,$83B1               ;01db
            call sub_0202               ;01de
            jp   unk007C                ;01e1
unk01E4     ld   ($83E4),hl             ;01e4
            ld   hl,jpcoldstart         ;01e7
            add  hl,sp                  ;01ea
            ld   ($83E2),hl             ;01eb
            pop  af                     ;01ee
            pop  hl                     ;01ef
            ld   ($83E0),hl             ;01f0
            ld   sp,$83EC               ;01f3
            push af                     ;01f6
            push bc                     ;01f7
            push de                     ;01f8
            ld   sp,$83B1               ;01f9
            call sub_0202               ;01fc
            jp   unk025D                ;01ff
sub_0202            ld   a,$92          ;0202
            out  ($FB),a                ;0204
            ld   b,$17          ;0206
            call sub_003F               ;0208
            ld   hl,$83EC               ;020b
            ld   b,$0C          ;020e
            jp   unk0042                ;0210
            nop                 ;0213
            nop                 ;0214
            nop                 ;0215
            jp   sub_0684               ;0216
unk0219     ex   (sp),hl                        ;0219
            ld   ($83E0),hl             ;021a
            push af                     ;021d
            jp   unk0226                ;021e
            nop                 ;0221
            nop                 ;0222
            jp   unk0690                ;0223
unk0226     ld   hl,jpcoldstart         ;0226
            add  hl,sp                  ;0229
            ld   ($83E2),hl             ;022a
            pop  af                     ;022d
            pop  hl                     ;022e
            ld   sp,$83EC               ;022f
            push af                     ;0232
            push bc                     ;0233
            push de                     ;0234
            push hl                     ;0235
            ld   sp,$83B1               ;0236
            xor  a                      ;0239
            ld   ($83DC),a              ;023a
            call sub_026F               ;023d
            jp   z,unk025D              ;0240
            ld   hl,($83F0)             ;0243
            ex   de,hl                  ;0246
            ld   hl,($83E0)             ;0247
            call sub_05FF               ;024a
            jp   nz,unk01A4             ;024d
            ld   hl,($83F2)             ;0250
            dec  hl                     ;0253
            ld   ($83F2),hl             ;0254
            call sub_026F               ;0257
            jp   nz,unk01A4             ;025a
unk025D     ld   hl,($83E0)             ;025d
            ld   ($83EE),hl             ;0260
            ld   hl,($83EA)             ;0263
            ld   ($83EC),hl             ;0266
            call sub_064E               ;0269
            jp   unk007C                ;026c
sub_026F            ld   a,($83F2)              ;026f
            and  a                      ;0272
            ret  nz                     ;0273
            ld   a,($83F3)              ;0274
            and  a                      ;0277
            ret                 ;0278
unk0279     ld   a,($83DF)              ;0279
            and  a                      ;027c
            jp   nz,unk02BF             ;027d
            ld   a,($83DE)              ;0280
            and  a                      ;0283
            jp   nz,unk0295             ;0284
            ld   hl,($83EE)             ;0287
            ld   a,($83EC)              ;028a
            ld   (hl),a                 ;028d
            cp   (hl)                   ;028e
            jp   nz,unk0617             ;028f
            jp   unk0183                ;0292
unk0295     ld   hl,unktabB             ;0295
            ld   b,$01          ;0298
            ld   a,($83DE)              ;029a
            rrca                        ;029d
unk029E     rrca                        ;029e
            jp   c,unk02A8              ;029f
            inc  hl                     ;02a2
            inc  hl                     ;02a3
            inc  b                      ;02a4
            jp   unk029E                ;02a5
unk02A8     ld   a,(hl)                 ;02a8
            inc  hl                     ;02a9
            ld   h,(hl)                 ;02aa
            ld   l,a                    ;02ab
            ld   a,($83EC)              ;02ac
            ld   (hl),a                 ;02af
            inc  hl                     ;02b0
            ld   a,($83ED)              ;02b1
            ld   (hl),a                 ;02b4
            ld   a,b                    ;02b5
            xor  $07            ;02b6
            jp   nz,unk0112             ;02b8
            ld   b,a                    ;02bb
            jp   unk0112                ;02bc
unk02BF     rlca                        ;02bf
            jp   c,unk02D6              ;02c0
            rlca                        ;02c3
            jp   c,unk02FF              ;02c4
            rlca                        ;02c7
            jp   c,unk03A2              ;02c8
            rlca                        ;02cb
            jp   c,unk0322              ;02cc
            rlca                        ;02cf
            jp   c,unk04DC              ;02d0
            jp   unk0425                ;02d3
unk02D6     ld   a,($83DB)              ;02d6
            and  a                      ;02d9
            jp   nz,unk02ED             ;02da
            inc  a                      ;02dd
            ld   ($83DB),a              ;02de
            ld   a,($83EC)              ;02e1
            ld   ($83CA),a              ;02e4
            call sub_0677               ;02e7
            ld   ($83D3),hl             ;02ea
unk02ED     call $83C9          ;02ed
            ld   ($83EC),a              ;02f0
            call sub_0677               ;02f3
            ld   ($83CF),hl             ;02f6
unk02F9     call sub_0643               ;02f9
            jp   unk007C                ;02fc
unk02FF     ld   a,($83DB)              ;02ff
            and  a                      ;0302
            jp   nz,unk0319             ;0303
            inc  a                      ;0306
            ld   ($83DB),a              ;0307
            ld   a,($83EC)              ;030a
            ld   ($83CD),a              ;030d
            call sub_0677               ;0310
            ld   ($83D3),hl             ;0313
            jp   unk00E3                ;0316
unk0319     ld   a,($83EC)              ;0319
            call $83CC          ;031c
            jp   unk02F9                ;031f
unk0322     ld   a,($83DB)              ;0322
            and  a                      ;0325
            jp   nz,unk0339             ;0326
            inc  a                      ;0329
            ld   ($83DB),a              ;032a
            call sub_017C               ;032d
            ld   ($83D7),hl             ;0330
            call sub_0651               ;0333
            jp   unk00E3                ;0336
unk0339     xor  a                      ;0339
            ld   c,a                    ;033a
            ld   hl,($83EC)             ;033b
            ex   de,hl                  ;033e
unk033F     ld   hl,($83D7)             ;033f
            call sub_0612               ;0342
            ld   b,c                    ;0345
            dec  hl                     ;0346
unk0347     inc  hl                     ;0347
            ld   (hl),b                 ;0348
            inc  b                      ;0349
            call sub_05FF               ;034a
            jp   nz,unk0347             ;034d
            ld   b,c                    ;0350
            ld   hl,($83D7)             ;0351
            dec  hl                     ;0354
unk0355     inc  hl                     ;0355
            ld   a,b                    ;0356
            cp   (hl)                   ;0357
            jp   nz,unk037B             ;0358
unk035B     inc  b                      ;035b
            call sub_05FF               ;035c
            jp   nz,unk0355             ;035f
            inc  c                      ;0362
            jp   nz,unk033F             ;0363
            call sub_0629               ;0366
            ld   hl,$0914               ;0369
            ld   ($83D1),hl             ;036c
            ld   hl,$140D               ;036f
            ld   ($83CF),hl             ;0372
            call clrDBDE                ;0375
            jp   unk007C                ;0378
unk037B     ld   ($83EE),hl             ;037b
            ld   h,b                    ;037e
            ld   l,(hl)                 ;037f
            ld   ($83EC),hl             ;0380
            push bc                     ;0383
            push de                     ;0384
            push hl                     ;0385
            call sub_064E               ;0386
            call sub_056C               ;0389
            call sub_0684               ;038c
            pop  hl                     ;038f
            pop  de                     ;0390
            pop  bc                     ;0391
            cp   $15            ;0392
            ld   hl,($83EE)             ;0394
            jp   z,unk035B              ;0397
            ld   b,a                    ;039a
            call clrDBDE                ;039b
            ld   a,b                    ;039e
            jp   unk0082                ;039f
unk03A2     ld   a,($83DB)              ;03a2
            and  a                      ;03a5
            jp   nz,unk03B6             ;03a6
            inc  a                      ;03a9
            ld   ($83DB),a              ;03aa
            call sub_017C               ;03ad
            call sub_0651               ;03b0
            jp   unk00E3                ;03b3
unk03B6     rrca                        ;03b6
            jp   nc,unk03D2             ;03b7
            ld   a,$02          ;03ba
            ld   ($83DB),a              ;03bc
            ld   hl,($83EC)             ;03bf
            ld   ($83D7),hl             ;03c2
            ex   de,hl                  ;03c5
            ld   hl,($83EE)             ;03c6
            ld   ($83D9),hl             ;03c9
            call sub_0612               ;03cc
            jp   unk00E0                ;03cf
unk03D2     call sub_017C               ;03d2
            push hl                     ;03d5
            call sub_0651               ;03d6
            call sub_0639               ;03d9
            call sub_056C               ;03dc
            ld   hl,($83D7)             ;03df
            push hl                     ;03e2
            pop  bc                     ;03e3
            pop  de                     ;03e4
            ld   hl,($83D9)             ;03e5
            call sub_05FF               ;03e8
            jp   nc,unk0407             ;03eb
            dec  hl                     ;03ee
            dec  de                     ;03ef
unk03F0     inc  hl                     ;03f0
            inc  de                     ;03f1
            ld   a,(hl)                 ;03f2
            ld   (de),a                 ;03f3
            call sub_060C               ;03f4
            jp   nz,unk03F0             ;03f7
unk03FA     ex   de,hl                  ;03fa
            ld   ($83EC),hl             ;03fb
            call sub_0664               ;03fe
            call clrDBDE                ;0401
            jp   unk007C                ;0404
unk0407     push bc                     ;0407
            push bc                     ;0408
            push hl                     ;0409
            pop  bc                     ;040a
            pop  hl                     ;040b
            add  hl,de                  ;040c
            ld   a,l                    ;040d
            sub  c                      ;040e
            ld   e,a                    ;040f
            ld   a,h                    ;0410
            sbc  a,b                    ;0411
            ld   d,a                    ;0412
            pop  hl                     ;0413
            push de                     ;0414
            inc  hl                     ;0415
            inc  de                     ;0416
unk0417     dec  hl                     ;0417
            dec  de                     ;0418
            ld   a,(hl)                 ;0419
            ld   (de),a                 ;041a
            call sub_060C               ;041b
            jp   nz,unk0417             ;041e
            pop  de                     ;0421
            jp   unk03FA                ;0422
unk0425     ld   a,($83DB)              ;0425
            and  a                      ;0428
            jp   nz,unk0439             ;0429
            inc  a                      ;042c
            ld   ($83DB),a              ;042d
            ld   a,($83EC)              ;0430
            ld   ($83D7),a              ;0433
            jp   unk00E0                ;0436
unk0439     rrca                        ;0439
            jp   nc,unk044B             ;043a
            ld   a,$02          ;043d
            ld   ($83DB),a              ;043f
            call sub_017C               ;0442
            call sub_0651               ;0445
            jp   unk00E3                ;0448
unk044B     ld   hl,($83EC)             ;044b
            ex   de,hl                  ;044e
            ld   hl,($83EE)             ;044f
            call sub_0612               ;0452
            push de                     ;0455
            push hl                     ;0456
            ld   hl,$051D               ;0457
            ld   ($83D5),hl             ;045a
            ld   a,($83D7)              ;045d
            call sub_0677               ;0460
            ld   ($83D3),hl             ;0463
            call sub_0639               ;0466
            call sub_056C               ;0469
            ld   c,$00          ;046c
            call sub_06E7               ;046e
            cp   (hl)                   ;0471
            ld   a,$55          ;0472
            ld   b,$37          ;0474
            call sub_0701               ;0476
            inc  hl                     ;0479
            dec  hl                     ;047a
            cp   (hl)                   ;047b
            ld   a,($83D7)              ;047c
            ld   b,$35          ;047f
            call sub_04D2               ;0481
            nop                 ;0484
            nop                 ;0485
            pop  hl                     ;0486
            pop  de                     ;0487
            ld   a,h                    ;0488
            ld   b,$35          ;0489
            call sub_04D2               ;048b
            ld   a,l                    ;048e
            ld   b,$37          ;048f
            call sub_04D2               ;0491
            ld   a,d                    ;0494
            ld   b,$37          ;0495
            call sub_04D2               ;0497
            ld   a,e                    ;049a
            ld   b,$37          ;049b
            call sub_04D2               ;049d
            inc  (hl)                   ;04a0
            dec  (hl)                   ;04a1
            ld   a,c                    ;04a2
            cpl                 ;04a3
            inc  a                      ;04a4
            ld   b,$35          ;04a5
            call sub_04D2               ;04a7
            ld   a,($83EC)              ;04aa
            ld   b,$35          ;04ad
            dec  hl                     ;04af
unk04B0     inc  hl                     ;04b0
            ld   a,(hl)                 ;04b1
            call sub_04D2               ;04b2
            in   a,($F8)                ;04b5
            ld   b,$31          ;04b7
            call sub_05FF               ;04b9
            jp   nz,unk04B0             ;04bc
            nop                 ;04bf
            cp   (hl)                   ;04c0
            ld   a,c                    ;04c1
            cpl                 ;04c2
            inc  a                      ;04c3
            ld   b,$30          ;04c4
            call sub_04D2               ;04c6
            call sub_0639               ;04c9
            call clrDBDE                ;04cc
            jp   unk007C                ;04cf
sub_04D2            push af                     ;04d2
            add  a,c                    ;04d3
            ld   c,a                    ;04d4
            pop  af                     ;04d5
            ld   (segments+7),a         ;04d6
            jp   sub_0701               ;04d9
unk04DC     ld   a,($83EC)              ;04dc
            push af                     ;04df
            call sub_0677               ;04e0
            ld   ($83D3),hl             ;04e3
            ld   hl,$051D               ;04e6
            ld   ($83D5),hl             ;04e9
            call sub_0639               ;04ec
unk04EF     call sub_056C               ;04ef
            ld   c,$00          ;04f2
            call sub_0765               ;04f4
            call sub_0783               ;04f7
            cp   $55            ;04fa
            jp   nz,unk04EF             ;04fc
            call sub_0561               ;04ff
            ld   d,a                    ;0502
            pop  af                     ;0503
            cp   d                      ;0504
            jp   z,unk0513              ;0505
            push af                     ;0508
            ld   a,d                    ;0509
            call sub_0677               ;050a
            ld   ($83CF),hl             ;050d
            jp   unk04EF                ;0510
unk0513     xor  a                      ;0513
            ld   ($83FE),a              ;0514
            ld   a,$71          ;0517
            ld   (segments),a           ;0519
            call sub_0561               ;051c
            ld   h,a                    ;051f
            call sub_0561               ;0520
            ld   l,a                    ;0523
            call sub_0561               ;0524
            ld   d,a                    ;0527
            call sub_0561               ;0528
            ld   e,a                    ;052b
            call sub_0561               ;052c
            jp   nz,unk0556             ;052f
            push hl                     ;0532
            dec  hl                     ;0533
unk0534     inc  hl                     ;0534
            call sub_0561               ;0535
            ld   (hl),a                 ;0538
            call sub_05FF               ;0539
            jp   nz,unk0534             ;053c
            call sub_0561               ;053f
            pop  hl                     ;0542
            jp   nz,unk0556             ;0543
            ld   ($83EE),hl             ;0546
            ex   de,hl                  ;0549
            ld   ($83EC),hl             ;054a
            call sub_064E               ;054d
            call clrDBDE                ;0550
            jp   unk007C                ;0553
unk0556     ld   a,$0E          ;0556
            ld   ($83D6),a              ;0558
            call clrDBDE                ;055b
            jp   unk00E3                ;055e
sub_0561            call sub_0783               ;0561
            ld   (segments+7),a         ;0564
            ld   b,a                    ;0567
            add  a,c                    ;0568
            ld   c,a                    ;0569
            ld   a,b                    ;056a
            ret                 ;056b
sub_056C            ld   hl,$83D6               ;056c
            ld   de,segments            ;056f
            ld   bc,unktabD             ;0572
            ld   a,($83DF)              ;0575
            and  $3C            ;0578
            rlca                        ;057a
            rlca                        ;057b
            push af                     ;057c
unk057D     ld   a,(hl)                 ;057d
            push hl                     ;057e
            ld   h,$00          ;057f
            ld   l,a                    ;0581
            add  hl,bc                  ;0582
            ld   a,(hl)                 ;0583
            ld   (de),a                 ;0584
            pop  hl                     ;0585
            pop  af                     ;0586
            rlca                        ;0587
            push af                     ;0588
            call c,sub_05AE             ;0589
            dec  hl                     ;058c
            inc  e                      ;058d
            jp   nz,unk057D             ;058e
            pop  af                     ;0591
            ld   a,($83DF)              ;0592
            rrca                        ;0595
            jp   nc,unk05A6             ;0596
            ld   b,$04          ;0599
            ld   de,segments            ;059b
unk059E     call sub_05AE               ;059e
            inc  de                     ;05a1
            dec  b                      ;05a2
            jp   nz,unk059E             ;05a3
unk05A6     ld   a,($83DE)              ;05a6
            rrca                        ;05a9
            ret  nc                     ;05aa
            ld   de,$83FC               ;05ab
sub_05AE            ld   a,(de)                 ;05ae
            or   $80            ;05af
            ld   (de),a                 ;05b1
            ret                 ;05b2
unktabD     db    $3F           ;05b3
            db    $06           ;05b4
            db    $5B           ;05b5
            db    $4F           ;05b6
            db    $66           ;05b7
            db    $6D           ;05b8
            db    $7D           ;05b9
            db    $27           ;05ba
            db    $7F           ;05bb
            db    $6F           ;05bc
            db    $77           ;05bd
            db    $7C           ;05be
            db    $39           ;05bf
            db    $5E           ;05c0
            db    $79           ;05c1
            db    $71           ;05c2
            db    $76           ;05c3
            db    $1E           ;05c4
            db    $38           ;05c5
            db    $54           ;05c6
            db    $5C           ;05c7
            db    $73           ;05c8
            db    $67           ;05c9
            db    $50           ;05ca
            db    $3E           ;05cb
            db    $1C           ;05cc
            db    $6E           ;05cd
            db    $74           ;05ce
            db    $00           ;05cf
            db    $40           ;05d0
            db    $80           ;05d1
sub_05D2            ld   hl,($83D0)             ;05d2
            ld   ($83D1),hl             ;05d5
            ld   a,($83CF)              ;05d8
            ld   ($83D0),a              ;05db
            ld   hl,($83EC)             ;05de
            add  hl,hl                  ;05e1
            add  hl,hl                  ;05e2
            add  hl,hl                  ;05e3
            add  hl,hl                  ;05e4
            ld   ($83EC),hl             ;05e5
            ret

;   ??? Clear a couple of housekeeping locations; return A=1
clrDBDE     ld   hl,rst0                ;05e9
            ld   ($83DB),hl             ;05ec
            ld   ($83DE),hl             ;05ef
            ld   a,$01          ;05f2
            ret

;   Given a bit number 0-7 in A, return A with that bit set ($01, $02, $04 etc.)
setbitN     inc  a
            ld   c,a
            ld   a,$80
_L_05F9     rlca                ; bit 7 → bit 0
            dec  c
            jp   nz,_L_05F9
            ret

sub_05FF            ld   a,d                    ;05ff
            cp   h                      ;0600
            jp   nz,unk0608             ;0601
            nop                 ;0604
            ld   a,e                    ;0605
            cp   l                      ;0606
            ret                 ;0607
unk0608     call z,rst0         ;0608
            ret                 ;060b
sub_060C            ld   a,b                    ;060c
            cp   h                      ;060d
            ret  nz                     ;060e
            ld   a,c                    ;060f
            cp   l                      ;0610
            ret                 ;0611
sub_0612            call sub_05FF               ;0612
            ret  nc                     ;0615
            pop  hl                     ;0616
unk0617     ld   hl,$1C0E               ;0617
            ld   ($83D5),hl             ;061a
            ld   hl,$1717               ;061d
            ld   ($83D3),hl             ;0620
            call clrDBDE                ;0623
            jp   unk00E3                ;0626
sub_0629            ld   hl,$1C1C               ;0629
            ld   ($83D5),hl             ;062c
            ld   ($83D3),hl             ;062f
            ld   hl,rst0                ;0632
            ld   ($83EE),hl             ;0635
            ret                 ;0638
sub_0639            ld   hl,$1C1C               ;0639
            ld   ($83CF),hl             ;063c
            xor  a                      ;063f
            ld   ($83EC),a              ;0640
sub_0643            ld   hl,$1C1C               ;0643
            ld   ($83D1),hl             ;0646
            xor  a                      ;0649
            ld   ($83ED),a              ;064a
            ret                 ;064d
sub_064E            call sub_0664               ;064e
sub_0651            ld   a,($83EF)              ;0651
            call sub_0677               ;0654
            ld   ($83D5),hl             ;0657
            ld   a,($83EE)              ;065a
            call sub_0677               ;065d
            ld   ($83D3),hl             ;0660
            ret                 ;0663
sub_0664            ld   a,($83ED)              ;0664
            call sub_0677               ;0667
            ld   ($83D1),hl             ;066a
sub_066D            ld   a,($83EC)              ;066d
            call sub_0677               ;0670
            ld   ($83CF),hl             ;0673
            ret                 ;0676
sub_0677            ld   b,a                    ;0677
            and  $0F            ;0678
            ld   l,a                    ;067a
            ld   a,b                    ;067b
            rrca                        ;067c
            rrca                        ;067d
            rrca                        ;067e
            rrca                        ;067f
            and  $0F            ;0680
            ld   h,a                    ;0682
            ret                 ;0683
sub_0684            call unk0690                ;0684
            ld   a,($83DD)              ;0687
            and  a                      ;068a
            jp   z,sub_0684             ;068b
            ld   a,b                    ;068e
            ret                 ;068f
unk0690     call sub_06BC               ;0690
            inc  a                      ;0693
            jp   z,unk06B7              ;0694
unk0697     ld   d,$0E          ;0697
unk0699     ld   e,$00          ;0699
            call sub_07BD               ;069b
            dec  d                      ;069e
            jp   nz,unk0699             ;069f
            call sub_06BC               ;06a2
            ld   b,a                    ;06a5
            inc  a                      ;06a6
            jp   z,unk06B7              ;06a7
            ld   a,($83DD)              ;06aa
            and  a                      ;06ad
            jp   nz,unk0697             ;06ae
            dec  a                      ;06b1
unk06B2     ld   ($83DD),a              ;06b2
            ld   a,b                    ;06b5
            ret                 ;06b6
unk06B7     ld   b,$FF          ;06b7
            jp   unk06B2                ;06b9
sub_06BC            xor  a                      ;06bc
            ld   d,a                    ;06bd
            ld   b,a                    ;06be
            ld   a,$EF          ;06bf
            call sub_06D4               ;06c1
            ld   b,$08          ;06c4
            ld   a,$DF          ;06c6
            call sub_06D4               ;06c8
            ld   b,$10          ;06cb
            ld   a,$BF          ;06cd
            call sub_06D4               ;06cf
            dec  a                      ;06d2
            ret                 ;06d3
sub_06D4            out  ($FA),a                ;06d4
            in   a,($F8)                ;06d6
            cpl                 ;06d8
            and  a                      ;06d9
            ret  z                      ;06da
            pop  hl                     ;06db
unk06DC     rrca                        ;06dc
            jp   c,unk06E4              ;06dd
            inc  d                      ;06e0
            jp   unk06DC                ;06e1
unk06E4     ld   a,d                    ;06e4
            or   b                      ;06e5
            ret                 ;06e6
sub_06E7            push bc                     ;06e7
            push hl                     ;06e8
            ld   hl,$1770               ;06e9
unk06EC     call sub_073B               ;06ec
            ld   b,(hl)                 ;06ef
            ld   b,$1C          ;06f0
            dec  l                      ;06f2
            jp   nz,unk06EC             ;06f3
            in   a,($F8)                ;06f6
            ld   b,$1A          ;06f8
            dec  h                      ;06fa
            jp   nz,unk06EC             ;06fb
            pop  hl                     ;06fe
            pop  bc                     ;06ff
            ret                 ;0700
sub_0701            push bc                     ;0701
            push de                     ;0702
            push hl                     ;0703
            ld   c,a                    ;0704
            call sub_074A               ;0705
            ld   de,$193E               ;0708
            ld   a,(hl)                 ;070b
            ld   l,$08          ;070c
unk070E     ld   a,c                    ;070e
            rra                 ;070f
            ld   c,a                    ;0710
            jp   c,unk071E              ;0711
            ld   b,e                    ;0714
            in   a,($F8)                ;0715
            ld   a,(hl)                 ;0717
            call sub_074A               ;0718
            jp   unk0728                ;071b
unk071E     ld   b,d                    ;071e
            in   a,($F8)                ;071f
            in   a,($F8)                ;0721
            call sub_073B               ;0723
            in   a,($F8)                ;0726
unk0728     dec  l                      ;0728
            jp   nz,unk070E             ;0729
            ld   b,$1C          ;072c
            call sub_073B               ;072e
            ld   a,(hl)                 ;0731
            ld   b,$1D          ;0732
            call sub_073B               ;0734
            pop  hl                     ;0737
            pop  de                     ;0738
            pop  bc                     ;0739
            ret                 ;073a
sub_073B            ld   a,$D8          ;073b
            call sub_0759               ;073d
            call sub_0757               ;0740
            call sub_0757               ;0743
            call sub_0757               ;0746
            ret                 ;0749
sub_074A            ld   a,$D8          ;074a
            call sub_0759               ;074c
            nop                 ;074f
            nop                 ;0750
            ld   b,$44          ;0751
            call sub_0759               ;0753
            ret                 ;0756
sub_0757            ld   b,$20          ;0757
sub_0759            dec  b                      ;0759
            jp   nz,sub_0759            ;075a
            inc  bc                     ;075d
            dec  bc                     ;075e
            nop                 ;075f
            rla                 ;0760
            ccf                 ;0761
            rra                 ;0762
            sim
            ret                 ;0764
sub_0765            push bc                     ;0765
            push de                     ;0766
            rim
            ld   b,a                    ;0768
unk0769     ld   d,$00          ;0769
unk076B     ld   e,$00          ;076b
            call sub_07C6               ;076d
            ld   a,$1F          ;0770
            cp   e                      ;0772
            jp   c,unk0769              ;0773
            ld   a,$08          ;0776
            cp   e                      ;0778
            jp   nc,unk0769             ;0779
            inc  d                      ;077c
            jp   nz,unk076B             ;077d
            pop  de                     ;0780
            pop  bc                     ;0781
            ret                 ;0782
sub_0783            push bc                     ;0783
            push de                     ;0784
            push hl                     ;0785
            rim
            ld   b,a                    ;0787
unk0788     ld   e,$00          ;0788
            call sub_07C6               ;078a
            ld   a,$20          ;078d
            cp   e                      ;078f
            jp   nc,unk0788             ;0790
            ld   a,$4A          ;0793
            call sub_07BF               ;0795
            ld   l,$08          ;0798
unk079A     call sub_07AC               ;079a
            ld   a,h                    ;079d
            rra                 ;079e
            ld   h,a                    ;079f
            call sub_07BD               ;07a0
            dec  l                      ;07a3
            jp   nz,unk079A             ;07a4
            ld   a,h                    ;07a7
            pop  hl                     ;07a8
            pop  de                     ;07a9
            pop  bc                     ;07aa
            ret

sub_07AC            call sub_07C6               ;07ac
            ld   a,$35          ;07af
            ld   e,$00          ;07b1
            call sub_07BF               ;07b3
            call sub_07C6               ;07b6
            ld   a,$37          ;07b9
            cp   e                      ;07bb
            ret

sub_07BD            ld   a,$47          ;07bd
sub_07BF            inc  e                      ;07bf
            nop                 ;07c0
            cp   e                      ;07c1
            jp   nc,sub_07BF            ;07c2
            ret

sub_07C6            inc  e                      ;07c6
            rim
            xor  b                      ;07c8
            jp   z,sub_07C6             ;07c9
            xor  b                      ;07cc
            ld   b,a                    ;07cd
            ret

unk07CF     ld   hl,$83EF               ;07cf
            ld   de,$83F4               ;07d2
            ld   b,$04          ;07d5
_L_7D7      ld   a,(hl)                 ;07d7
            ld   (de),a                 ;07d8
            dec  hl                     ;07d9
            inc  de                     ;07da
            dec  b                      ;07db
            jp   nz,_L_7D7              ;07dc
unk07DF     ld   b,$04          ;07df
            ld   hl,$83F4               ;07e1
            ld   de,$83D6               ;07e4
_L_7E7      ld   a,(hl)                 ;07e7
            call stded_msnyb            ;07e8
            ld   a,(hl)                 ;07eb
            call stded_lsnyb            ;07ec
            inc  hl                     ;07ef
            dec  b                      ;07f0
            jp   nz,_L_7E7              ;07f1
            jp   sub_056C

;   Store upper/lower nybble of A in (DE) and decrement DE.
stded_msnyb rrca                ; shift right four bits
            rrca
            rrca
            rrca
            ; fallthrough
stded_lsnyb and  $0F            ; mask lower nybble
            ld   (de),a
            dec  de
            ret
